[
  {
    "element-6066-11e4-a52e-4f735466cecf": "f1138063-21cf-4505-90f6-97d156dca1c4"
  },
  {
    "element-6066-11e4-a52e-4f735466cecf": "26d6bff5-da75-4b9b-bd47-35c231257bd6"
  },
  {
    "element-6066-11e4-a52e-4f735466cecf": "b0c05c36-0f4a-49f8-b281-86f654510662"
  },
  {
    "element-6066-11e4-a52e-4f735466cecf": "a3e5d843-db8d-4711-a815-4a0886bea2d8"
  },
  {
    "element-6066-11e4-a52e-4f735466cecf": "c568f09b-ac52-46eb-babf-7fc15420e570"
  },
  {
    "element-6066-11e4-a52e-4f735466cecf": "e7b62d2f-6e8f-4f28-a56d-59b14c85353b"
  },
  {
    "element-6066-11e4-a52e-4f735466cecf": "6497d8fe-160f-46ef-ad70-97eda7d6a709"
  },
  {
    "element-6066-11e4-a52e-4f735466cecf": "5936d34a-37f2-42a9-a767-1d623c15a204"
  },
  {
    "element-6066-11e4-a52e-4f735466cecf": "24d607a5-372b-4b23-a3bd-fb7c922648f1"
  },
  {
    "element-6066-11e4-a52e-4f735466cecf": "36121cb0-98c1-445b-a9be-904cf8cb6018"
  },
  {
    "element-6066-11e4-a52e-4f735466cecf": "c451c257-c0bf-43ea-8da5-40ac58375da8"
  },
  {
    "element-6066-11e4-a52e-4f735466cecf": "e640e7e3-c031-4f06-b252-b7e2ed2fac47"
  },
  {
    "element-6066-11e4-a52e-4f735466cecf": "1c09528b-18e5-4b29-b38d-d99e4df5e633"
  },
  {
    "element-6066-11e4-a52e-4f735466cecf": "bdc0765a-f6eb-4e31-9689-f90862f452f1"
  },
  {
    "element-6066-11e4-a52e-4f735466cecf": "6c79c284-0c78-4a3b-8e58-0bf07c50fc78"
  },
  {
    "element-6066-11e4-a52e-4f735466cecf": "bec5fb27-ecd3-4044-95ab-b40d475b5245"
  },
  {
    "element-6066-11e4-a52e-4f735466cecf": "070b30bc-231f-4ae9-b7eb-a48b406ed92a"
  },
  {
    "element-6066-11e4-a52e-4f735466cecf": "1c743398-e7e1-4a53-ab7e-33a9139a14a5"
  },
  {
    "element-6066-11e4-a52e-4f735466cecf": "07cf3732-506b-4263-93e7-12587b208928"
  },
  {
    "element-6066-11e4-a52e-4f735466cecf": "e957355e-7c43-43b3-9ca5-4473382dba02"
  },
  {
    "element-6066-11e4-a52e-4f735466cecf": "00ea3301-2c68-431b-8627-ebf94f3c279b"
  },
  {
    "element-6066-11e4-a52e-4f735466cecf": "35c4da3b-ec79-4b54-b251-c4a5c21873d4"
  },
  {
    "element-6066-11e4-a52e-4f735466cecf": "9ba897bf-dd53-4670-b707-fb44fb3593cd"
  },
  {
    "element-6066-11e4-a52e-4f735466cecf": "9f081adf-67c2-4e8a-be88-a8c9d6a7f163"
  }
]