[
  {
    "element-6066-11e4-a52e-4f735466cecf": "6744e7ed-c3a3-4e6b-9534-298dada6bd31"
  },
  {
    "element-6066-11e4-a52e-4f735466cecf": "9ac22319-d7cd-41a2-b128-2e3142d6b104"
  },
  {
    "element-6066-11e4-a52e-4f735466cecf": "e9b991f4-d64c-452d-88fc-365ece3331c2"
  },
  {
    "element-6066-11e4-a52e-4f735466cecf": "dc5bfc5f-6500-4ab8-8c2f-6e60502d6884"
  },
  {
    "element-6066-11e4-a52e-4f735466cecf": "8c6c4c2e-6bbd-4784-9a52-e3d981a3ca73"
  },
  {
    "element-6066-11e4-a52e-4f735466cecf": "3a5b2b17-604d-48b2-a0a0-004bb450c076"
  },
  {
    "element-6066-11e4-a52e-4f735466cecf": "a58048e4-a266-48ec-a630-d7f69a12ed40"
  },
  {
    "element-6066-11e4-a52e-4f735466cecf": "dd35a68d-4118-415d-8f94-504544497e3f"
  },
  {
    "element-6066-11e4-a52e-4f735466cecf": "dc8f92a7-3425-4017-9e51-4164a6018de7"
  },
  {
    "element-6066-11e4-a52e-4f735466cecf": "e1d2a401-a483-431b-a610-e71fd1a0d69b"
  },
  {
    "element-6066-11e4-a52e-4f735466cecf": "255c6404-ab3d-4284-879f-39c7e86195cf"
  },
  {
    "element-6066-11e4-a52e-4f735466cecf": "4526c8a8-c834-45e0-aac2-4f5a3f5be1ac"
  },
  {
    "element-6066-11e4-a52e-4f735466cecf": "8c1a144e-6a3a-47cf-82db-5e5fd1db90e3"
  },
  {
    "element-6066-11e4-a52e-4f735466cecf": "4365e0a9-47a8-42f1-9171-ffd645233212"
  },
  {
    "element-6066-11e4-a52e-4f735466cecf": "c15c703b-2f75-4d01-843c-a9a4f7753613"
  },
  {
    "element-6066-11e4-a52e-4f735466cecf": "46e72e33-f149-4a3d-9d94-e351685a8493"
  },
  {
    "element-6066-11e4-a52e-4f735466cecf": "f16dcb3b-b51f-4bf7-99c9-8b13e82f7146"
  },
  {
    "element-6066-11e4-a52e-4f735466cecf": "0370bcaf-a907-4582-ae22-1d08178440b5"
  },
  {
    "element-6066-11e4-a52e-4f735466cecf": "750d0e19-6d22-4c2d-b1ab-d8e6431a4cc4"
  },
  {
    "element-6066-11e4-a52e-4f735466cecf": "c27e9dd1-b021-4e24-89c4-3b9d83bf0f4d"
  },
  {
    "element-6066-11e4-a52e-4f735466cecf": "0ca79a89-f02e-4c97-8e24-36d8514b910f"
  },
  {
    "element-6066-11e4-a52e-4f735466cecf": "a1542619-9ca2-4e68-92d8-684202ee9b64"
  },
  {
    "element-6066-11e4-a52e-4f735466cecf": "661b4e53-ec50-4b3f-9421-2f27f2759a40"
  },
  {
    "element-6066-11e4-a52e-4f735466cecf": "ab4384e8-2b1c-494b-ba51-5e46bd096211"
  }
]