{
  "error": "no such element",
  "message": "no such element: Element_id length is invalid\n  (Session info: chrome=85.0.4183.102)",
  "stacktrace": "Backtrace:\n\tOrdinal0 [0x0041D383+3134339]\n\tOrdinal0 [0x0030A171+2007409]\n\tOrdinal0 [0x001AAEE8+569064]\n\tOrdinal0 [0x0013A0C4+106692]\n\tOrdinal0 [0x001378E7+96487]\n\tOrdinal0 [0x0014EC5D+191581]\n\tOrdinal0 [0x00134986+84358]\n\tOrdinal0 [0x0014ED31+191793]\n\tOrdinal0 [0x00158773+231283]\n\tOrdinal0 [0x0014EB0B+191243]\n\tOrdinal0 [0x00132E77+77431]\n\tOrdinal0 [0x00133E3E+81470]\n\tOrdinal0 [0x00133DC9+81353]\n\tOrdinal0 [0x00320CD9+2100441]\n\tGetHandleVerifier [0x0058B75A+1396954]\n\tGetHandleVerifier [0x0058B3D9+1396057]\n\tGetHandleVerifier [0x00597126+1444518]\n\tGetHandleVerifier [0x0058BCE8+1398376]\n\tOrdinal0 [0x00317F51+2064209]\n\tOrdinal0 [0x003222EB+2106091]\n\tOrdinal0 [0x00322411+2106385]\n\tOrdinal0 [0x003349C4+2181572]\n\tBaseThreadInitThunk [0x74CB6359+25]\n\tRtlGetAppContainerNamedObjectPath [0x77227C24+228]\n\tRtlGetAppContainerNamedObjectPath [0x77227BF4+180]\n"
}