[
  {
    "element-6066-11e4-a52e-4f735466cecf": "0697cc85-2f05-4f29-bd4e-b05fbedd8591"
  },
  {
    "element-6066-11e4-a52e-4f735466cecf": "1a5fd137-40b2-4161-9251-1cff0cf04d39"
  },
  {
    "element-6066-11e4-a52e-4f735466cecf": "f98062af-4906-480a-a939-95ff0920f296"
  },
  {
    "element-6066-11e4-a52e-4f735466cecf": "501c753f-dcea-4777-8b8c-c5d01489e736"
  },
  {
    "element-6066-11e4-a52e-4f735466cecf": "b916a25e-5c07-4e98-925c-53d9e2ad2f17"
  },
  {
    "element-6066-11e4-a52e-4f735466cecf": "7c309bac-ac04-423e-8832-371c235a7840"
  },
  {
    "element-6066-11e4-a52e-4f735466cecf": "e369746f-8663-40ec-9000-894e3a6ffee0"
  },
  {
    "element-6066-11e4-a52e-4f735466cecf": "cba3d879-7405-48c0-9f00-99bb145e3826"
  },
  {
    "element-6066-11e4-a52e-4f735466cecf": "a35d8abe-2205-476a-adc7-3090ec171038"
  },
  {
    "element-6066-11e4-a52e-4f735466cecf": "5dc6aa1c-3292-4c3b-bb01-f91563c92c9a"
  },
  {
    "element-6066-11e4-a52e-4f735466cecf": "bbd1954e-346f-427f-a6e1-29b1e0f3b4d7"
  },
  {
    "element-6066-11e4-a52e-4f735466cecf": "00867c03-95f5-4cbc-aee4-8ebfefdcf9c3"
  },
  {
    "element-6066-11e4-a52e-4f735466cecf": "e1afd650-5153-43f3-aea6-aeaf7b3898da"
  },
  {
    "element-6066-11e4-a52e-4f735466cecf": "864ae411-c553-4be3-9ac4-d6dddd84f204"
  },
  {
    "element-6066-11e4-a52e-4f735466cecf": "7f495e1f-2868-4d77-8857-3629216fc168"
  },
  {
    "element-6066-11e4-a52e-4f735466cecf": "e49a065e-3b98-4794-bcaa-2ea692ffab99"
  },
  {
    "element-6066-11e4-a52e-4f735466cecf": "22673633-f7f0-4119-95b9-185f02da74b9"
  },
  {
    "element-6066-11e4-a52e-4f735466cecf": "05f31f1b-64cd-4d72-a8a9-08618ae622f7"
  },
  {
    "element-6066-11e4-a52e-4f735466cecf": "2246d3a0-27c0-41d0-9f67-fe30ed77f15f"
  },
  {
    "element-6066-11e4-a52e-4f735466cecf": "ffed3f78-e9b9-4d36-b524-b99900ba3b54"
  },
  {
    "element-6066-11e4-a52e-4f735466cecf": "69fe809e-3550-4e1e-bb68-f168bd77c001"
  },
  {
    "element-6066-11e4-a52e-4f735466cecf": "14417cc7-b846-4fa2-bf98-2ec57a333047"
  },
  {
    "element-6066-11e4-a52e-4f735466cecf": "6be39483-057e-4400-82ea-65020181e2b2"
  },
  {
    "element-6066-11e4-a52e-4f735466cecf": "c09b22d2-3959-4e73-b6d7-48df3fc02055"
  }
]