[
  {
    "element-6066-11e4-a52e-4f735466cecf": "a1f72f11-506e-4a42-b107-f6fa4103c92d"
  },
  {
    "element-6066-11e4-a52e-4f735466cecf": "691d3bc9-725e-4e23-bd5d-3749ded0862d"
  },
  {
    "element-6066-11e4-a52e-4f735466cecf": "a8c67108-30c6-4605-8a2d-1aaaf57c8059"
  },
  {
    "element-6066-11e4-a52e-4f735466cecf": "b3d66f01-50be-4db3-943a-83dc01b37b12"
  },
  {
    "element-6066-11e4-a52e-4f735466cecf": "ae6f3e24-3bd2-41af-ab07-27162cfc9046"
  },
  {
    "element-6066-11e4-a52e-4f735466cecf": "d0cf77ca-0d49-4e0c-a286-d3571bd7172d"
  },
  {
    "element-6066-11e4-a52e-4f735466cecf": "c6ee0150-d4d2-4588-b44f-b731dd86a579"
  },
  {
    "element-6066-11e4-a52e-4f735466cecf": "5b9ea66d-7204-42b8-9a14-64a5bc06383b"
  },
  {
    "element-6066-11e4-a52e-4f735466cecf": "92b386d3-03bf-406c-9b53-a6e99b7465f6"
  },
  {
    "element-6066-11e4-a52e-4f735466cecf": "8d85b6d1-bd63-420e-85ce-0130d5b382b2"
  },
  {
    "element-6066-11e4-a52e-4f735466cecf": "168aa616-8def-41fa-8268-c6e0f67c4df2"
  },
  {
    "element-6066-11e4-a52e-4f735466cecf": "ac94f1f4-3004-407d-a5f5-eb21b56d3f65"
  },
  {
    "element-6066-11e4-a52e-4f735466cecf": "b72fc75d-152f-408e-80f5-63a5ceddeed0"
  },
  {
    "element-6066-11e4-a52e-4f735466cecf": "5c589e9b-3f78-4333-9ee9-3ee137cd2ca8"
  },
  {
    "element-6066-11e4-a52e-4f735466cecf": "101ee0a1-ef65-40b5-a255-7b9f8c52b3bc"
  },
  {
    "element-6066-11e4-a52e-4f735466cecf": "e07393fa-db44-49c7-8f38-ded7eb0009a9"
  },
  {
    "element-6066-11e4-a52e-4f735466cecf": "66204e07-8fe7-43f4-a0eb-982feec9c25c"
  },
  {
    "element-6066-11e4-a52e-4f735466cecf": "5e057ed0-009e-4fd3-8ea5-0d6c711b0538"
  },
  {
    "element-6066-11e4-a52e-4f735466cecf": "9ad8bf98-b819-48b5-af44-c698a831cf8f"
  },
  {
    "element-6066-11e4-a52e-4f735466cecf": "5bbebb06-4fbf-4e9f-b582-e36502ce7c7b"
  },
  {
    "element-6066-11e4-a52e-4f735466cecf": "b99ac88d-8083-468a-a63a-3e7d5b041472"
  },
  {
    "element-6066-11e4-a52e-4f735466cecf": "db9b5405-7251-4751-9688-eda9a613657c"
  },
  {
    "element-6066-11e4-a52e-4f735466cecf": "d95a3e3e-de17-457f-bc91-7137e796f322"
  },
  {
    "element-6066-11e4-a52e-4f735466cecf": "630430b0-1c48-4f18-b0db-d023a2f97b55"
  }
]