[
  {
    "element-6066-11e4-a52e-4f735466cecf": "1bb9841d-2e26-4ec9-9b97-2bb1e29cffae"
  },
  {
    "element-6066-11e4-a52e-4f735466cecf": "7353cc1f-38c4-43fa-9693-cd78a9e24eb3"
  },
  {
    "element-6066-11e4-a52e-4f735466cecf": "d301aac5-d114-429c-b808-03f3a1fd3824"
  },
  {
    "element-6066-11e4-a52e-4f735466cecf": "64b7cd8c-6e26-459a-97e4-03823b9c60c0"
  },
  {
    "element-6066-11e4-a52e-4f735466cecf": "6c758542-6373-4ea9-af45-e8eef06efe7d"
  },
  {
    "element-6066-11e4-a52e-4f735466cecf": "261388d1-12d1-4a5e-a384-80a4e25f3820"
  },
  {
    "element-6066-11e4-a52e-4f735466cecf": "9c42e678-2876-44bc-8759-a2082617cd03"
  },
  {
    "element-6066-11e4-a52e-4f735466cecf": "1e3c0d55-74bd-4b62-853a-49595abe2dd1"
  },
  {
    "element-6066-11e4-a52e-4f735466cecf": "2a993fa8-d20b-426f-a439-34d1e0b20b62"
  },
  {
    "element-6066-11e4-a52e-4f735466cecf": "797bbf5d-e653-46ef-95fe-5b0a56936e69"
  },
  {
    "element-6066-11e4-a52e-4f735466cecf": "5e54ac9d-8bea-41f7-a764-ca0808f7e4ed"
  },
  {
    "element-6066-11e4-a52e-4f735466cecf": "93c1c177-59c6-4a41-86a6-589c1bf79053"
  },
  {
    "element-6066-11e4-a52e-4f735466cecf": "7ce46e1b-51f5-46d4-85fd-bbc34378fd6c"
  },
  {
    "element-6066-11e4-a52e-4f735466cecf": "8bbc8dc6-7b50-43be-ba20-339937bc1384"
  },
  {
    "element-6066-11e4-a52e-4f735466cecf": "ad5b1b72-ec7c-4ff0-a1dc-e25e747cff5b"
  },
  {
    "element-6066-11e4-a52e-4f735466cecf": "44d9ac7e-c23a-47f8-92ae-04dfef3051b6"
  },
  {
    "element-6066-11e4-a52e-4f735466cecf": "21e4a95e-2cf2-44e3-81ab-17dbd898e617"
  },
  {
    "element-6066-11e4-a52e-4f735466cecf": "25c9ddf4-ac17-49db-927a-488dba7ac5d9"
  },
  {
    "element-6066-11e4-a52e-4f735466cecf": "8dd7c2f8-b571-4f48-be51-284a2518ca6a"
  },
  {
    "element-6066-11e4-a52e-4f735466cecf": "b4fbda6e-b72b-4798-b71e-5deb523ca315"
  },
  {
    "element-6066-11e4-a52e-4f735466cecf": "648a0a9c-8863-42c0-aa09-ebe9177e7d81"
  },
  {
    "element-6066-11e4-a52e-4f735466cecf": "76f10a1a-66b0-44e3-8c34-513c95e3ded6"
  },
  {
    "element-6066-11e4-a52e-4f735466cecf": "ea63defd-20c2-43dd-8b3b-66cc8597728d"
  },
  {
    "element-6066-11e4-a52e-4f735466cecf": "9831803f-40d8-4c01-88b6-c38945b80442"
  }
]