[
  {
    "element-6066-11e4-a52e-4f735466cecf": "1d522964-bddd-41f6-832e-c1797f341d6e"
  },
  {
    "element-6066-11e4-a52e-4f735466cecf": "e8a74194-689c-4f08-91f1-a0c8eba48325"
  },
  {
    "element-6066-11e4-a52e-4f735466cecf": "563bd25a-f87b-4922-a7e6-51dbce8b433a"
  },
  {
    "element-6066-11e4-a52e-4f735466cecf": "2f740251-c52f-4e95-a20f-957abe0c2b0a"
  },
  {
    "element-6066-11e4-a52e-4f735466cecf": "937a9c74-b918-46b9-b79d-0a969c96c39e"
  },
  {
    "element-6066-11e4-a52e-4f735466cecf": "77d3a580-6054-4aca-874e-771c13bd02e3"
  },
  {
    "element-6066-11e4-a52e-4f735466cecf": "c7e7fa7a-de64-4be5-acb2-33ff57e5c116"
  },
  {
    "element-6066-11e4-a52e-4f735466cecf": "ebf72eb3-3da5-482c-a944-ab98ed955d94"
  },
  {
    "element-6066-11e4-a52e-4f735466cecf": "99aa64a1-17b5-4270-b294-e31175fa14ba"
  },
  {
    "element-6066-11e4-a52e-4f735466cecf": "6541508a-c790-4524-9578-86e1cdeb45b9"
  },
  {
    "element-6066-11e4-a52e-4f735466cecf": "22b85f07-c825-4efe-92ee-db2577d67551"
  },
  {
    "element-6066-11e4-a52e-4f735466cecf": "746f17fd-f05f-4569-8b11-7e0056a0f731"
  },
  {
    "element-6066-11e4-a52e-4f735466cecf": "02f9b193-c424-44c8-a58b-c68e811e411d"
  },
  {
    "element-6066-11e4-a52e-4f735466cecf": "bcedbac2-f3f9-4f74-ac54-ecd9e79023d3"
  },
  {
    "element-6066-11e4-a52e-4f735466cecf": "a570b693-39f1-4555-9e97-15803e43b0c0"
  },
  {
    "element-6066-11e4-a52e-4f735466cecf": "0ae97808-708e-4b97-92bb-3d061209b322"
  },
  {
    "element-6066-11e4-a52e-4f735466cecf": "03637728-a82a-436b-ab6b-880508ffcd4f"
  },
  {
    "element-6066-11e4-a52e-4f735466cecf": "638b9bf8-a9fb-4e16-b85c-30c1842ee675"
  },
  {
    "element-6066-11e4-a52e-4f735466cecf": "b0d3cf8f-6ae8-42ad-bd10-2b29f541594b"
  },
  {
    "element-6066-11e4-a52e-4f735466cecf": "3603112b-9128-4ed8-99b2-912e361efe2e"
  },
  {
    "element-6066-11e4-a52e-4f735466cecf": "824a8ed1-dad8-4848-aa3c-a5d3258e8b7d"
  },
  {
    "element-6066-11e4-a52e-4f735466cecf": "22376ecb-a1fa-45c0-8db3-1a51d517e406"
  },
  {
    "element-6066-11e4-a52e-4f735466cecf": "a93ecf77-4aa3-4156-bb28-225eeea47ddb"
  },
  {
    "element-6066-11e4-a52e-4f735466cecf": "b8cd50a6-7406-4c1e-906e-023a8383636f"
  }
]