[
  {
    "element-6066-11e4-a52e-4f735466cecf": "ee597fa7-7a8e-4973-b818-8f9577174cb7"
  },
  {
    "element-6066-11e4-a52e-4f735466cecf": "6a8f20c9-c539-47b0-adfc-8433e318b211"
  },
  {
    "element-6066-11e4-a52e-4f735466cecf": "6b7a110f-45ec-439f-b2ac-ea16e9482067"
  },
  {
    "element-6066-11e4-a52e-4f735466cecf": "304065d0-b6e2-4163-9a70-32714dad493f"
  },
  {
    "element-6066-11e4-a52e-4f735466cecf": "6f81d931-b343-4cde-a507-c391a3842732"
  },
  {
    "element-6066-11e4-a52e-4f735466cecf": "4a7257f5-0101-4a0c-9050-5e56a46432bc"
  },
  {
    "element-6066-11e4-a52e-4f735466cecf": "b1940fea-29c5-40ee-8af4-6fb6275d048e"
  },
  {
    "element-6066-11e4-a52e-4f735466cecf": "41026048-27bb-450c-85fa-df2df0970a10"
  },
  {
    "element-6066-11e4-a52e-4f735466cecf": "94a63f31-896b-4eab-ac32-a94664a89765"
  },
  {
    "element-6066-11e4-a52e-4f735466cecf": "a8bec23a-5d13-4b41-aedc-d936adef0200"
  },
  {
    "element-6066-11e4-a52e-4f735466cecf": "79754394-87d8-4f7f-9a94-27ac9c7dda04"
  },
  {
    "element-6066-11e4-a52e-4f735466cecf": "4b3ab56c-c82e-4622-900c-366948db08e4"
  },
  {
    "element-6066-11e4-a52e-4f735466cecf": "ad74d857-c159-4b54-b291-0b09bde8f1b3"
  },
  {
    "element-6066-11e4-a52e-4f735466cecf": "23b40c0f-4646-4999-aac7-e0ba9015dca2"
  },
  {
    "element-6066-11e4-a52e-4f735466cecf": "999d2a6b-d9d7-4db9-a164-a16a7b25e025"
  },
  {
    "element-6066-11e4-a52e-4f735466cecf": "354246f2-24fe-442b-9e4b-6efe41886d7d"
  },
  {
    "element-6066-11e4-a52e-4f735466cecf": "acbfb5e5-595d-41e8-87f0-b5ae40911cb1"
  },
  {
    "element-6066-11e4-a52e-4f735466cecf": "c9b8c7d1-55ae-4011-a16d-8ed25c5334d8"
  },
  {
    "element-6066-11e4-a52e-4f735466cecf": "c7ad7e57-a1b7-4935-855e-ef455d90f054"
  },
  {
    "element-6066-11e4-a52e-4f735466cecf": "398ba3b5-1754-4a92-acc5-03f5d7ef36d4"
  },
  {
    "element-6066-11e4-a52e-4f735466cecf": "87ee8d86-34aa-4e6e-b6c6-804e55b9541f"
  },
  {
    "element-6066-11e4-a52e-4f735466cecf": "404d4279-60c8-4e56-8268-a586a9d61c12"
  },
  {
    "element-6066-11e4-a52e-4f735466cecf": "725c87f6-7ffb-4ab3-81cd-5187090c838b"
  },
  {
    "element-6066-11e4-a52e-4f735466cecf": "a0a87a51-42b4-44ca-8630-a30507fb5161"
  }
]