[
  {
    "element-6066-11e4-a52e-4f735466cecf": "fbc2e244-8ee5-47dc-8de8-c3dadb719cc7"
  },
  {
    "element-6066-11e4-a52e-4f735466cecf": "7eed8ab3-aa60-4d0f-9136-3eb983c4d0f4"
  },
  {
    "element-6066-11e4-a52e-4f735466cecf": "51bb893a-420b-4277-a991-3a31001a3664"
  },
  {
    "element-6066-11e4-a52e-4f735466cecf": "cd20c88e-d135-4367-929c-8a61006a3537"
  },
  {
    "element-6066-11e4-a52e-4f735466cecf": "3940352e-8e8e-4431-aefd-98d75f543cd7"
  },
  {
    "element-6066-11e4-a52e-4f735466cecf": "11458894-48a9-45d1-96ad-351938cf30ee"
  },
  {
    "element-6066-11e4-a52e-4f735466cecf": "b2b804f0-ff62-4507-9e2d-d282b4e13595"
  },
  {
    "element-6066-11e4-a52e-4f735466cecf": "9da9fd0d-542d-4f04-bbb1-2656420754df"
  },
  {
    "element-6066-11e4-a52e-4f735466cecf": "7d09378b-f995-4f81-857c-3f4ae4a27429"
  },
  {
    "element-6066-11e4-a52e-4f735466cecf": "9e6e6f7c-fab3-47f1-b76e-67127292d422"
  },
  {
    "element-6066-11e4-a52e-4f735466cecf": "617ca853-b920-46ec-85df-fbd9e6b001e1"
  },
  {
    "element-6066-11e4-a52e-4f735466cecf": "8d970939-aad7-4919-8a56-aef21090a585"
  },
  {
    "element-6066-11e4-a52e-4f735466cecf": "91fdb0cd-9249-4f7b-be2d-1593ad173304"
  },
  {
    "element-6066-11e4-a52e-4f735466cecf": "881cef49-5aef-4df6-bac7-a4b9616a6e04"
  },
  {
    "element-6066-11e4-a52e-4f735466cecf": "8b8a0a8c-6fe6-4759-8a00-a1f537225d5c"
  },
  {
    "element-6066-11e4-a52e-4f735466cecf": "0b7b6a57-a0a6-4cd2-9ac0-a17258c43124"
  },
  {
    "element-6066-11e4-a52e-4f735466cecf": "9d754908-a558-416e-8e78-ccadd373d31d"
  },
  {
    "element-6066-11e4-a52e-4f735466cecf": "15ad44f9-249a-4d89-bae5-49ddd3488fbd"
  },
  {
    "element-6066-11e4-a52e-4f735466cecf": "00fde361-c1c1-40d3-a1e8-b86b9bda4585"
  },
  {
    "element-6066-11e4-a52e-4f735466cecf": "ad2a428a-e36d-486d-bf9a-898ce8823057"
  },
  {
    "element-6066-11e4-a52e-4f735466cecf": "e0f4587c-789a-4772-ba30-67f76605156d"
  },
  {
    "element-6066-11e4-a52e-4f735466cecf": "504c61b0-abe0-49b5-979a-7a3896345422"
  },
  {
    "element-6066-11e4-a52e-4f735466cecf": "6a28dd77-795e-40ba-be41-388fbc497575"
  },
  {
    "element-6066-11e4-a52e-4f735466cecf": "c6f2ae27-e568-4ee3-87e4-bc9731b723dd"
  }
]