[
  {
    "element-6066-11e4-a52e-4f735466cecf": "963cf0da-c77a-4add-83b9-1b063e30bd50"
  },
  {
    "element-6066-11e4-a52e-4f735466cecf": "a9126200-63d6-456a-93a6-a74cc5b4ba6a"
  },
  {
    "element-6066-11e4-a52e-4f735466cecf": "a4ad98d4-48ce-462d-a599-311de1ed8bff"
  },
  {
    "element-6066-11e4-a52e-4f735466cecf": "760a8711-c9cc-4cc2-9da7-595ecc02a5e9"
  },
  {
    "element-6066-11e4-a52e-4f735466cecf": "d1c38e25-0dad-435b-96e9-1d1820035bac"
  },
  {
    "element-6066-11e4-a52e-4f735466cecf": "f3a70c5b-4b67-4e79-857a-9e4560e0e686"
  },
  {
    "element-6066-11e4-a52e-4f735466cecf": "9aae0f09-454f-44b7-b8d7-95729628d7a5"
  },
  {
    "element-6066-11e4-a52e-4f735466cecf": "f4ae378c-26c3-4a2a-89e1-73a4d71a2c20"
  },
  {
    "element-6066-11e4-a52e-4f735466cecf": "ce7869e6-bc34-44fd-9050-9e3d33bc8e88"
  },
  {
    "element-6066-11e4-a52e-4f735466cecf": "56d76e45-4187-4c7e-a3f9-20ac92b15112"
  },
  {
    "element-6066-11e4-a52e-4f735466cecf": "b2fffcc1-3179-4606-82ec-9fe8747304a0"
  },
  {
    "element-6066-11e4-a52e-4f735466cecf": "5604d9fb-79f6-41d8-aa01-065861a9b2ce"
  },
  {
    "element-6066-11e4-a52e-4f735466cecf": "e347a07c-78a1-4c99-9085-335bf6c534f4"
  },
  {
    "element-6066-11e4-a52e-4f735466cecf": "24a51bfd-8af2-4721-ba4c-9884a16fd009"
  },
  {
    "element-6066-11e4-a52e-4f735466cecf": "225b57ec-61d3-4922-b0d1-55c6740a5e6e"
  },
  {
    "element-6066-11e4-a52e-4f735466cecf": "598e9758-e93c-47cf-af7f-661fdb181104"
  },
  {
    "element-6066-11e4-a52e-4f735466cecf": "0be27dca-6b76-46c0-88c7-8623e433c398"
  },
  {
    "element-6066-11e4-a52e-4f735466cecf": "064f1792-7134-4d01-90fb-a2df98f48123"
  },
  {
    "element-6066-11e4-a52e-4f735466cecf": "5408a29a-9e7c-4698-96dd-4317309f2e33"
  },
  {
    "element-6066-11e4-a52e-4f735466cecf": "ce35cf35-ce02-4dd2-843c-3408d61fbe13"
  },
  {
    "element-6066-11e4-a52e-4f735466cecf": "13f93e6c-41a3-4abc-af4b-e8a95a1b288c"
  },
  {
    "element-6066-11e4-a52e-4f735466cecf": "8f0bd72e-7cb3-4a02-9608-003bc9a0d88c"
  },
  {
    "element-6066-11e4-a52e-4f735466cecf": "83d8a901-a818-4e92-8dae-0cfab6a35cfd"
  },
  {
    "element-6066-11e4-a52e-4f735466cecf": "2f65002c-b4e4-4b6a-999d-71c8bb8b2007"
  }
]