{
  "error": "no such element",
  "message": "no such element: Element_id length is invalid\n  (Session info: chrome=85.0.4183.102)",
  "stacktrace": "Backtrace:\n\tOrdinal0 [0x00D5D383+3134339]\n\tOrdinal0 [0x00C4A171+2007409]\n\tOrdinal0 [0x00AEAEE8+569064]\n\tOrdinal0 [0x00A7A0C4+106692]\n\tOrdinal0 [0x00A778E7+96487]\n\tOrdinal0 [0x00A8EC5D+191581]\n\tOrdinal0 [0x00A74986+84358]\n\tOrdinal0 [0x00A8ED31+191793]\n\tOrdinal0 [0x00A98773+231283]\n\tOrdinal0 [0x00A8EB0B+191243]\n\tOrdinal0 [0x00A72E77+77431]\n\tOrdinal0 [0x00A73E3E+81470]\n\tOrdinal0 [0x00A73DC9+81353]\n\tOrdinal0 [0x00C60CD9+2100441]\n\tGetHandleVerifier [0x00ECB75A+1396954]\n\tGetHandleVerifier [0x00ECB3D9+1396057]\n\tGetHandleVerifier [0x00ED7126+1444518]\n\tGetHandleVerifier [0x00ECBCE8+1398376]\n\tOrdinal0 [0x00C57F51+2064209]\n\tOrdinal0 [0x00C622EB+2106091]\n\tOrdinal0 [0x00C62411+2106385]\n\tOrdinal0 [0x00C749C4+2181572]\n\tBaseThreadInitThunk [0x74CB6359+25]\n\tRtlGetAppContainerNamedObjectPath [0x77227C24+228]\n\tRtlGetAppContainerNamedObjectPath [0x77227BF4+180]\n"
}