[
  {
    "element-6066-11e4-a52e-4f735466cecf": "300a6584-b14e-49e6-a6a9-7ed333eecba1"
  },
  {
    "element-6066-11e4-a52e-4f735466cecf": "8a7c4eec-fdf5-4b38-af20-9d074a7cefc1"
  },
  {
    "element-6066-11e4-a52e-4f735466cecf": "cdd3e2db-96c5-4352-8a70-5efc583d2555"
  },
  {
    "element-6066-11e4-a52e-4f735466cecf": "23ad8648-0426-428b-b267-3b8441dc709f"
  },
  {
    "element-6066-11e4-a52e-4f735466cecf": "f42e3bac-e71b-48f8-b309-d804ee009e46"
  },
  {
    "element-6066-11e4-a52e-4f735466cecf": "65369878-115e-41ec-9aca-b466e9f5e78f"
  },
  {
    "element-6066-11e4-a52e-4f735466cecf": "7f2e2c45-3f04-40d7-8a52-568310d57e41"
  },
  {
    "element-6066-11e4-a52e-4f735466cecf": "11f73529-cd94-4574-b929-8e7621877acf"
  },
  {
    "element-6066-11e4-a52e-4f735466cecf": "9a9aa2cc-4565-48bf-9032-b35cd1d2615d"
  },
  {
    "element-6066-11e4-a52e-4f735466cecf": "b5535a44-68a7-4530-8514-241309cef49a"
  },
  {
    "element-6066-11e4-a52e-4f735466cecf": "6f3cdff6-8ba3-472e-9544-c37f6e7ecec3"
  },
  {
    "element-6066-11e4-a52e-4f735466cecf": "fc6c3f87-14a2-441f-82f6-28b04a014913"
  },
  {
    "element-6066-11e4-a52e-4f735466cecf": "1905f011-ad1f-4d92-bf24-6c94342d2ee3"
  },
  {
    "element-6066-11e4-a52e-4f735466cecf": "f363a4d7-30b1-4d51-953e-64773eb045ca"
  },
  {
    "element-6066-11e4-a52e-4f735466cecf": "9679d94b-b6ec-4539-9d99-e4a63e957f82"
  },
  {
    "element-6066-11e4-a52e-4f735466cecf": "3387ce15-2e2d-4055-9b07-3844f7d682aa"
  },
  {
    "element-6066-11e4-a52e-4f735466cecf": "343d11e1-9603-4e82-8cea-02570dcab76b"
  },
  {
    "element-6066-11e4-a52e-4f735466cecf": "00d23142-8053-49d0-be90-17b6db732ab6"
  },
  {
    "element-6066-11e4-a52e-4f735466cecf": "082ff07b-20d5-4afc-a8e8-6b193b8b6b2c"
  },
  {
    "element-6066-11e4-a52e-4f735466cecf": "a1583193-940e-4d4b-8309-8b6a73767b11"
  },
  {
    "element-6066-11e4-a52e-4f735466cecf": "333d34d1-5dd5-4d63-ad58-a7668f0b7496"
  },
  {
    "element-6066-11e4-a52e-4f735466cecf": "58d741c0-a2a8-4d11-aea4-8c422e5e9f28"
  },
  {
    "element-6066-11e4-a52e-4f735466cecf": "9e800040-20f8-4eaf-8afe-1cd4887a95a5"
  },
  {
    "element-6066-11e4-a52e-4f735466cecf": "1e27cb54-f4bd-4e77-b220-856d297c6121"
  }
]