[
  {
    "element-6066-11e4-a52e-4f735466cecf": "86535413-b0ef-4dc1-9691-567f9ed031bf"
  },
  {
    "element-6066-11e4-a52e-4f735466cecf": "73feeca3-1ea0-461d-adef-7fa0fc0fa487"
  },
  {
    "element-6066-11e4-a52e-4f735466cecf": "033101b8-5a2c-49a8-b94c-59c408e86a05"
  },
  {
    "element-6066-11e4-a52e-4f735466cecf": "26c8ad53-8f1b-4bb1-a36c-80acbe93cdb4"
  },
  {
    "element-6066-11e4-a52e-4f735466cecf": "bc9d5a56-cfab-4a38-a250-2c0a6791fa66"
  },
  {
    "element-6066-11e4-a52e-4f735466cecf": "ad1394df-6b4f-4d65-b698-68c682a25e20"
  },
  {
    "element-6066-11e4-a52e-4f735466cecf": "ca5c3780-0d7b-48db-a53d-4d0b53a8a5e6"
  }
]