[
  {
    "element-6066-11e4-a52e-4f735466cecf": "c7369d98-924f-483f-8e04-aebc4db94e75"
  },
  {
    "element-6066-11e4-a52e-4f735466cecf": "d20aa03c-d8b8-4d96-878d-610630208573"
  },
  {
    "element-6066-11e4-a52e-4f735466cecf": "de0edfdc-2b7a-474f-83be-abc8b48c2966"
  },
  {
    "element-6066-11e4-a52e-4f735466cecf": "9908e370-c41e-4de3-8d0d-b87701b45791"
  },
  {
    "element-6066-11e4-a52e-4f735466cecf": "5069f463-6f7a-40db-8d81-550de2c8884e"
  },
  {
    "element-6066-11e4-a52e-4f735466cecf": "871408b7-ce44-44e9-bd20-9f7fed6846a0"
  },
  {
    "element-6066-11e4-a52e-4f735466cecf": "7aac49ab-6463-4014-95df-d64d87e96818"
  },
  {
    "element-6066-11e4-a52e-4f735466cecf": "e16a95ff-bfde-4289-9208-6c655a74a0bc"
  },
  {
    "element-6066-11e4-a52e-4f735466cecf": "e6ff76bc-5f9c-449c-8224-e67d77c72958"
  },
  {
    "element-6066-11e4-a52e-4f735466cecf": "f06f5ee6-341d-4e7a-a7e3-950c5964b2be"
  },
  {
    "element-6066-11e4-a52e-4f735466cecf": "cc4d0f50-e231-4236-aa53-fa3a606e61d6"
  },
  {
    "element-6066-11e4-a52e-4f735466cecf": "e1896179-0b6d-4d83-b98d-b927ceae4794"
  },
  {
    "element-6066-11e4-a52e-4f735466cecf": "fa303f28-cbb5-4c01-88f8-b604599a7b0c"
  },
  {
    "element-6066-11e4-a52e-4f735466cecf": "65240ba4-b42a-4755-9847-ee0a4fd6b374"
  },
  {
    "element-6066-11e4-a52e-4f735466cecf": "3c18290a-8b1c-4ec8-a7ac-0b56efd9f5f1"
  },
  {
    "element-6066-11e4-a52e-4f735466cecf": "45f6730f-3b9d-4fa3-96a7-6e0d32502a44"
  },
  {
    "element-6066-11e4-a52e-4f735466cecf": "f7fec8ad-7362-4119-bf7d-d714e9c4a9d8"
  },
  {
    "element-6066-11e4-a52e-4f735466cecf": "73d5120d-25a7-4bbe-bfff-16bee6babe77"
  },
  {
    "element-6066-11e4-a52e-4f735466cecf": "b579ade4-b0bc-4d66-aa22-e8dd1141723c"
  },
  {
    "element-6066-11e4-a52e-4f735466cecf": "25a0dea9-ca8f-400b-8e22-068e01635502"
  },
  {
    "element-6066-11e4-a52e-4f735466cecf": "733e2c88-d45e-42dc-9c9d-56716e1c83ef"
  },
  {
    "element-6066-11e4-a52e-4f735466cecf": "2cf02ad9-6955-455d-9879-d282266a936d"
  },
  {
    "element-6066-11e4-a52e-4f735466cecf": "22485fbe-f0eb-4e32-beea-36f4a96578b1"
  },
  {
    "element-6066-11e4-a52e-4f735466cecf": "5f15d30f-8b9d-40ff-a7b6-78e95f18fc2c"
  }
]