[
  {
    "element-6066-11e4-a52e-4f735466cecf": "c2dbb873-2b23-447a-af14-9db4d241095c"
  },
  {
    "element-6066-11e4-a52e-4f735466cecf": "bee0aec0-4c9a-42ff-91d5-3f11982d418a"
  },
  {
    "element-6066-11e4-a52e-4f735466cecf": "616edacb-c205-4b7f-ba31-f768e3d2f93b"
  },
  {
    "element-6066-11e4-a52e-4f735466cecf": "075967de-0c4d-48cf-8d55-154b4fdd3150"
  },
  {
    "element-6066-11e4-a52e-4f735466cecf": "81e40fd8-7ad2-44f4-9a0d-866c7f121bd2"
  },
  {
    "element-6066-11e4-a52e-4f735466cecf": "2f7cf987-c938-462f-b0ec-68a4e81cb7f1"
  },
  {
    "element-6066-11e4-a52e-4f735466cecf": "71701b3d-5920-4940-b23d-e2b217938970"
  },
  {
    "element-6066-11e4-a52e-4f735466cecf": "526ff105-f05d-4a32-be23-4fe8031163b1"
  },
  {
    "element-6066-11e4-a52e-4f735466cecf": "40cd6def-caf1-48b6-a817-00993a340d96"
  },
  {
    "element-6066-11e4-a52e-4f735466cecf": "968af974-fb52-41cc-9cba-99f22fea0754"
  },
  {
    "element-6066-11e4-a52e-4f735466cecf": "f8e80395-0d3e-41ae-b596-42c5b1214e4f"
  },
  {
    "element-6066-11e4-a52e-4f735466cecf": "87fe16ee-8322-499a-94e6-22b47482f2e1"
  },
  {
    "element-6066-11e4-a52e-4f735466cecf": "67ede2ac-62c0-4b0a-a0ac-14ea9d193f36"
  },
  {
    "element-6066-11e4-a52e-4f735466cecf": "b8c0c85c-bdcd-4fb3-b29b-0d599c9cc8fc"
  },
  {
    "element-6066-11e4-a52e-4f735466cecf": "c29fefbe-2154-41bc-95b9-b8f35924da86"
  },
  {
    "element-6066-11e4-a52e-4f735466cecf": "7e1ef8d2-4c3b-465a-91c8-fc89c7202765"
  },
  {
    "element-6066-11e4-a52e-4f735466cecf": "23145c5d-a4b3-413d-af29-e62aa9bf29dc"
  },
  {
    "element-6066-11e4-a52e-4f735466cecf": "e846f01d-4b70-42b8-89b0-6039ccbaec60"
  }
]