[
  {
    "element-6066-11e4-a52e-4f735466cecf": "ee5cb7c7-07c8-418c-be66-ef8632050d56"
  },
  {
    "element-6066-11e4-a52e-4f735466cecf": "27cc91c7-1890-401a-8757-e4d56071d560"
  },
  {
    "element-6066-11e4-a52e-4f735466cecf": "c1c06325-e9d7-4e78-ae53-c48800d05587"
  },
  {
    "element-6066-11e4-a52e-4f735466cecf": "5a884f47-5da1-4fc9-8f0d-aac204ea43a0"
  },
  {
    "element-6066-11e4-a52e-4f735466cecf": "031251c9-7300-4f45-94c2-ca7537d528e0"
  },
  {
    "element-6066-11e4-a52e-4f735466cecf": "b8ed34be-10cb-4c69-9558-ce68252d536f"
  },
  {
    "element-6066-11e4-a52e-4f735466cecf": "9b1976dc-8a5c-4e73-8b01-08770bb39c7c"
  }
]