{
  "script": "return (function isElementDisplayed(element) {\n  function nodeIsElement(node) {\n    if (!node) {\n      return false;\n    }\n\n    switch (node.nodeType) {\n      case Node.ELEMENT_NODE:\n      case Node.DOCUMENT_NODE:\n      case Node.DOCUMENT_FRAGMENT_NODE:\n        return true;\n\n      default:\n        return false;\n    }\n  }\n\n  function parentElementForElement(element) {\n    if (!element) {\n      return null;\n    }\n\n    return enclosingNodeOrSelfMatchingPredicate(element.parentNode, nodeIsElement);\n  }\n\n  function enclosingNodeOrSelfMatchingPredicate(targetNode, predicate) {\n    for (let node = targetNode; node && node !== targetNode.ownerDocument; node = node.parentNode) if (predicate(node)) {\n      return node;\n    }\n\n    return null;\n  }\n\n  function enclosingElementOrSelfMatchingPredicate(targetElement, predicate) {\n    for (let element = targetElement; element && element !== targetElement.ownerDocument; element = parentElementForElement(element)) if (predicate(element)) {\n      return element;\n    }\n\n    return null;\n  }\n\n  function cascadedStylePropertyForElement(element, property) {\n    if (!element || !property) {\n      return null;\n    }\n\n    if (element instanceof DocumentFragment) {\n      element = element.host;\n    }\n\n    let computedStyle = window.getComputedStyle(element);\n    let computedStyleProperty = computedStyle.getPropertyValue(property);\n\n    if (computedStyleProperty && computedStyleProperty !== 'inherit') {\n      return computedStyleProperty;\n    }\n\n    let parentElement = parentElementForElement(element);\n    return cascadedStylePropertyForElement(parentElement, property);\n  }\n\n  function elementSubtreeHasNonZeroDimensions(element) {\n    let boundingBox = element.getBoundingClientRect();\n\n    if (boundingBox.width > 0 && boundingBox.height > 0) {\n      return true;\n    }\n\n    if (element.tagName.toUpperCase() === 'PATH' && boundingBox.width + boundingBox.height > 0) {\n      let strokeWidth = cascadedStylePropertyForElement(element, 'stroke-width');\n      return !!strokeWidth && parseInt(strokeWidth, 10) > 0;\n    }\n\n    let cascadedOverflow = cascadedStylePropertyForElement(element, 'overflow');\n\n    if (cascadedOverflow === 'hidden') {\n      return false;\n    }\n\n    return Array.from(element.childNodes).some(childNode => {\n      if (childNode.nodeType === Node.TEXT_NODE) {\n        return true;\n      }\n\n      if (nodeIsElement(childNode)) {\n        return elementSubtreeHasNonZeroDimensions(childNode);\n      }\n\n      return false;\n    });\n  }\n\n  function elementOverflowsContainer(element) {\n    let cascadedOverflow = cascadedStylePropertyForElement(element, 'overflow');\n\n    if (cascadedOverflow !== 'hidden') {\n      return false;\n    }\n\n    return true;\n  }\n\n  function isElementSubtreeHiddenByOverflow(element) {\n    if (!element) {\n      return false;\n    }\n\n    if (!elementOverflowsContainer(element)) {\n      return false;\n    }\n\n    if (!element.childNodes.length) {\n      return false;\n    }\n\n    return Array.from(element.childNodes).every(childNode => {\n      if (childNode.nodeType === Node.TEXT_NODE) {\n        return false;\n      }\n\n      if (!nodeIsElement(childNode)) {\n        return true;\n      }\n\n      if (!elementSubtreeHasNonZeroDimensions(childNode)) {\n        return true;\n      }\n\n      return isElementSubtreeHiddenByOverflow(childNode);\n    });\n  }\n\n  function isElementInsideShadowRoot(element) {\n    if (!element) {\n      return false;\n    }\n\n    if (element.parentNode && element.parentNode.host) {\n      return true;\n    }\n\n    return isElementInsideShadowRoot(element.parentNode);\n  }\n\n  if (!isElementInsideShadowRoot(element) && !document.contains(element)) {\n    return false;\n  }\n\n  switch (element.tagName.toUpperCase()) {\n    case 'BODY':\n      return true;\n\n    case 'SCRIPT':\n    case 'NOSCRIPT':\n      return false;\n\n    case 'OPTGROUP':\n    case 'OPTION':\n      {\n        let enclosingSelectElement = enclosingNodeOrSelfMatchingPredicate(element, e => e.tagName.toUpperCase() === 'SELECT');\n        return isElementDisplayed(enclosingSelectElement);\n      }\n\n    case 'INPUT':\n      if (element.type === 'hidden') {\n        return false;\n      }\n\n      break;\n\n    default:\n      break;\n  }\n\n  if (cascadedStylePropertyForElement(element, 'visibility') !== 'visible') {\n    return false;\n  }\n\n  let hasAncestorWithZeroOpacity = !!enclosingElementOrSelfMatchingPredicate(element, e => {\n    return Number(cascadedStylePropertyForElement(e, 'opacity')) === 0;\n  });\n  let hasAncestorWithDisplayNone = !!enclosingElementOrSelfMatchingPredicate(element, e => {\n    return cascadedStylePropertyForElement(e, 'display') === 'none';\n  });\n\n  if (hasAncestorWithZeroOpacity || hasAncestorWithDisplayNone) {\n    return false;\n  }\n\n  if (!elementSubtreeHasNonZeroDimensions(element)) {\n    return false;\n  }\n\n  if (isElementSubtreeHiddenByOverflow(element)) {\n    return false;\n  }\n\n  return true;\n}).apply(null, arguments)",
  "args": [
    {
      "element-6066-11e4-a52e-4f735466cecf": "f5e0d187-e7f4-4d7f-8dfc-398195c8a5ea",
      "ELEMENT": "f5e0d187-e7f4-4d7f-8dfc-398195c8a5ea"
    }
  ]
}