[
  {
    "element-6066-11e4-a52e-4f735466cecf": "2383f68f-1ecb-43dc-8b63-5b76fe198f58"
  },
  {
    "element-6066-11e4-a52e-4f735466cecf": "0930402f-0a2f-454b-800f-d6f0127bed44"
  },
  {
    "element-6066-11e4-a52e-4f735466cecf": "c8ed4036-a107-439a-a4fa-e08c7132374a"
  },
  {
    "element-6066-11e4-a52e-4f735466cecf": "881cd88b-850e-4ffd-afee-6d6832f6688d"
  },
  {
    "element-6066-11e4-a52e-4f735466cecf": "886e7f15-f9fb-42a8-bdd7-5dad4dc2d5b6"
  },
  {
    "element-6066-11e4-a52e-4f735466cecf": "ebdc0e16-831a-4352-9411-d58d77fb5c32"
  },
  {
    "element-6066-11e4-a52e-4f735466cecf": "300da4cc-d777-4cb0-8e4c-b06329dfb5ce"
  },
  {
    "element-6066-11e4-a52e-4f735466cecf": "bba94697-97a3-4a0a-bf24-06cdec900d07"
  },
  {
    "element-6066-11e4-a52e-4f735466cecf": "9be7aea7-cea6-4b0c-9cde-43c51de7894c"
  },
  {
    "element-6066-11e4-a52e-4f735466cecf": "9ae33bfd-fb95-4a5b-958b-4dd9066b8a0d"
  },
  {
    "element-6066-11e4-a52e-4f735466cecf": "c31c37ef-b98d-45aa-9da5-5bb8ecb5ae57"
  },
  {
    "element-6066-11e4-a52e-4f735466cecf": "1727e7cb-bdc9-4929-a1eb-c7144ae59162"
  },
  {
    "element-6066-11e4-a52e-4f735466cecf": "ab7a41e3-9d76-4015-943d-9a1c55f860e4"
  },
  {
    "element-6066-11e4-a52e-4f735466cecf": "82cbbf3a-1f76-4d0f-a40f-96acf43768dd"
  },
  {
    "element-6066-11e4-a52e-4f735466cecf": "c7855902-640d-4831-a949-4c76facbd7c0"
  },
  {
    "element-6066-11e4-a52e-4f735466cecf": "6f559045-8272-4251-95a7-d3daf06466e9"
  },
  {
    "element-6066-11e4-a52e-4f735466cecf": "e3a99ebb-d147-4d96-b4a5-e726ac5bff95"
  },
  {
    "element-6066-11e4-a52e-4f735466cecf": "21547048-8e92-4fa6-8b14-99ea7e968b6c"
  }
]