[
  {
    "element-6066-11e4-a52e-4f735466cecf": "dd12e027-430f-404a-a4fe-6d8654b0fa51"
  },
  {
    "element-6066-11e4-a52e-4f735466cecf": "692f41ec-6ec9-4bc7-b7fb-81cd611e84a3"
  },
  {
    "element-6066-11e4-a52e-4f735466cecf": "13fa360e-d3aa-4eb3-bd59-74eacff162bf"
  },
  {
    "element-6066-11e4-a52e-4f735466cecf": "2ad5cccb-8bf2-4b29-9243-413e2d2ad5f5"
  },
  {
    "element-6066-11e4-a52e-4f735466cecf": "670eb921-2637-4814-8457-22e1594f2915"
  },
  {
    "element-6066-11e4-a52e-4f735466cecf": "9dd3dc0f-a5e1-4888-9532-01ee5ae0f147"
  },
  {
    "element-6066-11e4-a52e-4f735466cecf": "6dfa4340-d034-487d-ab42-cc206ccfe3ae"
  },
  {
    "element-6066-11e4-a52e-4f735466cecf": "4e852d1a-8ae2-4cc8-8e78-31ce19d1e316"
  },
  {
    "element-6066-11e4-a52e-4f735466cecf": "c140b37b-9e69-41b8-a6d7-8031f33763e4"
  },
  {
    "element-6066-11e4-a52e-4f735466cecf": "453b3bab-1d90-4dfa-9d84-b39744ef2b95"
  },
  {
    "element-6066-11e4-a52e-4f735466cecf": "2eb0bd94-a628-4b40-b698-824fc35bcc12"
  },
  {
    "element-6066-11e4-a52e-4f735466cecf": "4049e2c2-9e4a-4f6e-9e13-31b36ce9a764"
  },
  {
    "element-6066-11e4-a52e-4f735466cecf": "f38e4ce2-6369-4b9f-9960-2e72228ee9b9"
  },
  {
    "element-6066-11e4-a52e-4f735466cecf": "9e632b11-742a-47da-a14e-6f56c14c2d10"
  },
  {
    "element-6066-11e4-a52e-4f735466cecf": "bf6b07d8-e4a6-4ba6-ad05-82dce9b0f4ba"
  },
  {
    "element-6066-11e4-a52e-4f735466cecf": "af295f5b-a280-4f5d-906a-e2ae9c8c1fab"
  },
  {
    "element-6066-11e4-a52e-4f735466cecf": "cc3e3324-5f6a-4a24-9dcd-4bf8a468984b"
  },
  {
    "element-6066-11e4-a52e-4f735466cecf": "1a602f9b-3498-4646-b4b5-b67ac888e5fb"
  }
]