[
  {
    "element-6066-11e4-a52e-4f735466cecf": "d3058b17-428d-4679-b4ff-e76b4a0dae86"
  },
  {
    "element-6066-11e4-a52e-4f735466cecf": "746dc073-2c2e-4a61-888c-39e3b05ad4e2"
  },
  {
    "element-6066-11e4-a52e-4f735466cecf": "671c314c-52e3-4b29-a1c1-2eb8fac85511"
  },
  {
    "element-6066-11e4-a52e-4f735466cecf": "83816d4f-7eba-4235-87ba-9e968beafd74"
  },
  {
    "element-6066-11e4-a52e-4f735466cecf": "f145127e-5926-4402-9cad-8e3e9cab2f1f"
  },
  {
    "element-6066-11e4-a52e-4f735466cecf": "c0a9d373-bbda-4d41-ad97-c407df1e8472"
  },
  {
    "element-6066-11e4-a52e-4f735466cecf": "420c3645-bb19-4634-8a51-2060b3a751b9"
  },
  {
    "element-6066-11e4-a52e-4f735466cecf": "4cd6bd92-bdd6-4796-a1fd-70fccd3071d6"
  },
  {
    "element-6066-11e4-a52e-4f735466cecf": "eb3e57d1-1d77-4d9a-8fac-13a9c88b52eb"
  },
  {
    "element-6066-11e4-a52e-4f735466cecf": "f3378f6b-c450-4b59-abdb-9a830f80ef08"
  },
  {
    "element-6066-11e4-a52e-4f735466cecf": "4c762567-2782-4c03-8572-00e9d6d53def"
  },
  {
    "element-6066-11e4-a52e-4f735466cecf": "1ff78778-fb73-4118-907c-ab8cefb0bc45"
  },
  {
    "element-6066-11e4-a52e-4f735466cecf": "de296ee1-251e-4664-ae19-3b6d5c1344a9"
  },
  {
    "element-6066-11e4-a52e-4f735466cecf": "22c9bbf9-dc0f-4796-9c26-bd2c3cbb8554"
  },
  {
    "element-6066-11e4-a52e-4f735466cecf": "e10f2cb1-af11-4695-b770-51bda7fbab8a"
  },
  {
    "element-6066-11e4-a52e-4f735466cecf": "ae117334-05c6-4fed-8b17-430b8ce217bf"
  },
  {
    "element-6066-11e4-a52e-4f735466cecf": "c4ab8b37-66d4-4c6b-84f5-dd38f55f1723"
  },
  {
    "element-6066-11e4-a52e-4f735466cecf": "8368ce32-4bcf-4b4b-972c-6dc79aeca8c3"
  },
  {
    "element-6066-11e4-a52e-4f735466cecf": "502f8b05-4b97-44fc-af86-9d59510796d6"
  },
  {
    "element-6066-11e4-a52e-4f735466cecf": "19b3e879-a2ed-4f42-95bf-027fc7359018"
  },
  {
    "element-6066-11e4-a52e-4f735466cecf": "f3ad6873-215c-4dc9-94a6-eecbbdbd6118"
  },
  {
    "element-6066-11e4-a52e-4f735466cecf": "71e0ff61-1f94-4904-9494-529754a99e42"
  },
  {
    "element-6066-11e4-a52e-4f735466cecf": "1c6ae4f9-a35d-4567-92f8-2b5529de60f1"
  },
  {
    "element-6066-11e4-a52e-4f735466cecf": "bc9a598b-75a7-45b0-ad89-1bd44802ba80"
  }
]