[
  {
    "element-6066-11e4-a52e-4f735466cecf": "111be2d2-084a-4e63-af8c-b2dc6c0b8d0d"
  },
  {
    "element-6066-11e4-a52e-4f735466cecf": "646a20bb-43e1-4b80-8a17-9abcc6ce89bd"
  },
  {
    "element-6066-11e4-a52e-4f735466cecf": "ecf0174f-14e9-453e-b452-e9713fcbcc69"
  },
  {
    "element-6066-11e4-a52e-4f735466cecf": "51ce359a-349a-4620-a8d4-c71c89c144fd"
  },
  {
    "element-6066-11e4-a52e-4f735466cecf": "6dd7c677-60f8-4192-ab3e-6dac96ad88e0"
  },
  {
    "element-6066-11e4-a52e-4f735466cecf": "e83aa7e4-4c8c-44c3-a98a-f97f162bd584"
  },
  {
    "element-6066-11e4-a52e-4f735466cecf": "57b45536-6b24-4bfa-9cec-20a61bdbc359"
  },
  {
    "element-6066-11e4-a52e-4f735466cecf": "3c141edd-0ac1-4919-9c45-e31d1c434cac"
  },
  {
    "element-6066-11e4-a52e-4f735466cecf": "64daf663-cb3e-4dab-bf60-96e2980af118"
  },
  {
    "element-6066-11e4-a52e-4f735466cecf": "e98db4ab-e3e6-474b-be2e-08bd2697accc"
  },
  {
    "element-6066-11e4-a52e-4f735466cecf": "99f54e76-18a4-4d92-b162-12122a746895"
  },
  {
    "element-6066-11e4-a52e-4f735466cecf": "52307e65-d5b2-48da-90d8-113523d2c08b"
  },
  {
    "element-6066-11e4-a52e-4f735466cecf": "945d02bd-4a54-4f0f-b3bc-5015f132f0ec"
  },
  {
    "element-6066-11e4-a52e-4f735466cecf": "2c5e763b-d311-4856-898c-1efd2fb6104f"
  },
  {
    "element-6066-11e4-a52e-4f735466cecf": "5fb5aa12-5c98-4e7e-a93b-ae21654aa732"
  },
  {
    "element-6066-11e4-a52e-4f735466cecf": "49d458b0-5775-4d1d-babf-a9de0163f815"
  },
  {
    "element-6066-11e4-a52e-4f735466cecf": "5706c233-e62c-4641-a8af-f2a4a163664e"
  },
  {
    "element-6066-11e4-a52e-4f735466cecf": "2d5ed0d7-6164-4e8b-9c23-d1b589ee0483"
  }
]