[
  {
    "element-6066-11e4-a52e-4f735466cecf": "d6de105e-cada-482f-a292-8fcf8604603c"
  },
  {
    "element-6066-11e4-a52e-4f735466cecf": "13141e02-df45-46ca-a40f-870e86afa287"
  },
  {
    "element-6066-11e4-a52e-4f735466cecf": "00aaa99f-cf64-4bb9-9e8a-867bbb406aff"
  },
  {
    "element-6066-11e4-a52e-4f735466cecf": "6a856166-a6a4-4d84-b2f6-42a5011dec8b"
  },
  {
    "element-6066-11e4-a52e-4f735466cecf": "46dbc676-1f11-4e94-a6cd-9bf78a0da237"
  },
  {
    "element-6066-11e4-a52e-4f735466cecf": "362050fb-1182-447c-9a10-b603bf6c38ec"
  },
  {
    "element-6066-11e4-a52e-4f735466cecf": "cb57a96b-9bc0-4939-8dfe-a1dd4ce5e279"
  },
  {
    "element-6066-11e4-a52e-4f735466cecf": "069eaa63-8045-4d7d-8ac5-db86d358253f"
  },
  {
    "element-6066-11e4-a52e-4f735466cecf": "80c35f55-a237-44c5-a6fd-21d4665930a7"
  },
  {
    "element-6066-11e4-a52e-4f735466cecf": "27908086-3338-40ea-9f36-33087c216dd2"
  },
  {
    "element-6066-11e4-a52e-4f735466cecf": "5619118c-6bc0-44e8-b26b-0e646209d6c7"
  },
  {
    "element-6066-11e4-a52e-4f735466cecf": "103e03d5-c3e4-4071-b95d-c30e5b3eb346"
  },
  {
    "element-6066-11e4-a52e-4f735466cecf": "abb480ec-efbb-408a-803f-772733f7ef7f"
  },
  {
    "element-6066-11e4-a52e-4f735466cecf": "b03307fb-4486-4016-9724-b8a33cd6b9d0"
  },
  {
    "element-6066-11e4-a52e-4f735466cecf": "b0a7040b-aa62-4c10-ad0c-a34fc07ab2e9"
  },
  {
    "element-6066-11e4-a52e-4f735466cecf": "117e8c53-8272-4fc5-8a7b-1ef748a6cd72"
  },
  {
    "element-6066-11e4-a52e-4f735466cecf": "2483cd8c-f70e-4f09-9394-135667d14880"
  },
  {
    "element-6066-11e4-a52e-4f735466cecf": "d5c12a3c-bffc-47a6-9582-4bf0867a6c76"
  },
  {
    "element-6066-11e4-a52e-4f735466cecf": "c60d9eef-eff2-4f9f-8090-321ee597efa2"
  },
  {
    "element-6066-11e4-a52e-4f735466cecf": "285bb5e9-9d57-4578-a8a1-e214c1852da5"
  },
  {
    "element-6066-11e4-a52e-4f735466cecf": "c4cb613d-9fce-44fe-ba1d-53e21232ac01"
  },
  {
    "element-6066-11e4-a52e-4f735466cecf": "f276e2bb-ec2e-48a9-ad38-2693947699ef"
  },
  {
    "element-6066-11e4-a52e-4f735466cecf": "9cc5ff03-6720-47c9-a3ec-e8f3952b77b8"
  },
  {
    "element-6066-11e4-a52e-4f735466cecf": "fef477ab-6d74-4496-9f5b-d74c49d8e2f1"
  }
]