[
  {
    "element-6066-11e4-a52e-4f735466cecf": "0a72021f-568f-4033-9091-879e489bfa1e"
  },
  {
    "element-6066-11e4-a52e-4f735466cecf": "f50ede8c-75bc-4680-9b3f-7985208eb6b7"
  },
  {
    "element-6066-11e4-a52e-4f735466cecf": "79e8c029-d900-4584-8b27-d4da75e35e10"
  },
  {
    "element-6066-11e4-a52e-4f735466cecf": "0e43b107-571f-47fb-b1cc-7c62956fcbfd"
  },
  {
    "element-6066-11e4-a52e-4f735466cecf": "a79a289e-87d3-4ee8-945d-1a6de9e567d3"
  },
  {
    "element-6066-11e4-a52e-4f735466cecf": "6ba1d847-03f2-4690-ae6b-404e2e4289b1"
  },
  {
    "element-6066-11e4-a52e-4f735466cecf": "17797470-e502-4f84-bc17-1e3059e023bf"
  },
  {
    "element-6066-11e4-a52e-4f735466cecf": "b228ee7c-c1d9-4e49-9cf7-d61561be1e13"
  },
  {
    "element-6066-11e4-a52e-4f735466cecf": "f25aac80-53e7-4010-b935-a4ac642ad835"
  },
  {
    "element-6066-11e4-a52e-4f735466cecf": "4b075a3e-8501-4c10-b437-26861e76f3a8"
  },
  {
    "element-6066-11e4-a52e-4f735466cecf": "bdef496b-33ee-4443-a762-c26b41b5d828"
  },
  {
    "element-6066-11e4-a52e-4f735466cecf": "aa4af503-b3f1-4da7-bed4-62c309d2d0d9"
  },
  {
    "element-6066-11e4-a52e-4f735466cecf": "221ead27-4273-44b1-b7da-6d93b8b54237"
  },
  {
    "element-6066-11e4-a52e-4f735466cecf": "320cb0f0-28ca-4a67-b553-ac5c808bc48f"
  },
  {
    "element-6066-11e4-a52e-4f735466cecf": "64c9f290-a1b0-47cf-a11c-bec4b0909de7"
  },
  {
    "element-6066-11e4-a52e-4f735466cecf": "cc553968-2bb1-466f-ba44-1b324346e941"
  },
  {
    "element-6066-11e4-a52e-4f735466cecf": "7b335e2a-9d0b-4a9b-ac48-18d779965cc2"
  },
  {
    "element-6066-11e4-a52e-4f735466cecf": "54fcf8e5-ceb4-442a-b6fd-5ff38f4cd75b"
  },
  {
    "element-6066-11e4-a52e-4f735466cecf": "642caf94-086c-4c75-a9d5-8e8f7717e896"
  },
  {
    "element-6066-11e4-a52e-4f735466cecf": "8e186616-7630-4a0f-80d3-7987935d0ba9"
  },
  {
    "element-6066-11e4-a52e-4f735466cecf": "d1c81ad0-7be1-4722-ae22-a8e5eb2f44da"
  },
  {
    "element-6066-11e4-a52e-4f735466cecf": "d444002c-2942-44aa-85b3-2dfafd1019e5"
  },
  {
    "element-6066-11e4-a52e-4f735466cecf": "ac9ad503-cda5-4d72-b105-2ad5bf033f85"
  },
  {
    "element-6066-11e4-a52e-4f735466cecf": "305b6754-7e3d-4445-a5f8-6ee454f7bdd0"
  }
]