[
  {
    "element-6066-11e4-a52e-4f735466cecf": "b8141d92-7566-4615-91fd-a93ae8e4ff10"
  },
  {
    "element-6066-11e4-a52e-4f735466cecf": "8af02ae0-3d19-4226-92ef-2abe71e75230"
  },
  {
    "element-6066-11e4-a52e-4f735466cecf": "b04a0658-3938-4ad9-b9d6-0b3001b6733f"
  },
  {
    "element-6066-11e4-a52e-4f735466cecf": "a89cd9ff-2151-4b5c-943f-9a7298ce60cd"
  },
  {
    "element-6066-11e4-a52e-4f735466cecf": "b083f65f-c7eb-4f49-be86-b1c63ab5e5f4"
  },
  {
    "element-6066-11e4-a52e-4f735466cecf": "ae265f6f-6d09-42ff-8f2f-2c16f5684bf7"
  },
  {
    "element-6066-11e4-a52e-4f735466cecf": "73a50d55-5b91-40a7-8351-82042e5d2c31"
  },
  {
    "element-6066-11e4-a52e-4f735466cecf": "da55b71c-efee-4b93-8419-aa1fb2dc0b2e"
  },
  {
    "element-6066-11e4-a52e-4f735466cecf": "747df740-398a-48b5-b304-ae4f62598cf2"
  },
  {
    "element-6066-11e4-a52e-4f735466cecf": "d41c8573-8301-4a7c-adfb-40a2dfc1524c"
  },
  {
    "element-6066-11e4-a52e-4f735466cecf": "ca45dc95-54c5-4d4f-ad8c-fe6659ba202c"
  },
  {
    "element-6066-11e4-a52e-4f735466cecf": "64a06ae5-de7a-4e92-bf26-53bd7a1779b8"
  },
  {
    "element-6066-11e4-a52e-4f735466cecf": "33994cae-f3a9-4d61-b0e8-058531a97b6f"
  },
  {
    "element-6066-11e4-a52e-4f735466cecf": "d48db511-2474-4287-9a12-9d5847a4de66"
  },
  {
    "element-6066-11e4-a52e-4f735466cecf": "7e3c0a59-5dfc-4ac5-8a1b-e67e72cf53a0"
  },
  {
    "element-6066-11e4-a52e-4f735466cecf": "75f49403-bac4-4136-873d-833f4c52e541"
  },
  {
    "element-6066-11e4-a52e-4f735466cecf": "db3a9936-4e85-41f3-9bac-f3c76d54881d"
  },
  {
    "element-6066-11e4-a52e-4f735466cecf": "1e365dca-209e-4c95-bb79-a550ccdd8bd1"
  },
  {
    "element-6066-11e4-a52e-4f735466cecf": "83781825-49c9-495f-bcf9-b2e2b5a04793"
  },
  {
    "element-6066-11e4-a52e-4f735466cecf": "50400490-194e-4145-8a08-1e3fab670564"
  },
  {
    "element-6066-11e4-a52e-4f735466cecf": "7ef606ac-edbe-4bd4-8528-55ec8bbbead6"
  },
  {
    "element-6066-11e4-a52e-4f735466cecf": "fbdf065c-e175-42d6-ab51-409a7f5069bb"
  },
  {
    "element-6066-11e4-a52e-4f735466cecf": "625af32c-c3b7-489e-8c1a-1b42891f1a40"
  },
  {
    "element-6066-11e4-a52e-4f735466cecf": "5d2a72fe-a848-4d5b-a0d7-819fa9e0f5ae"
  }
]