[
  {
    "element-6066-11e4-a52e-4f735466cecf": "3bb6b086-c883-4db4-a66c-632222d6af1c"
  },
  {
    "element-6066-11e4-a52e-4f735466cecf": "1dc774cb-46a2-4473-9b9e-f97af55a262a"
  },
  {
    "element-6066-11e4-a52e-4f735466cecf": "c46d9ec8-e2f2-4c77-85ff-bc20d35fd88b"
  },
  {
    "element-6066-11e4-a52e-4f735466cecf": "226ef3d0-806a-4e26-87e6-cc27caaf05f1"
  },
  {
    "element-6066-11e4-a52e-4f735466cecf": "9e821b40-8a4d-4d09-b679-8f2a0723ea7f"
  },
  {
    "element-6066-11e4-a52e-4f735466cecf": "61c7a245-49da-40cc-b69f-f5b82ae3a381"
  },
  {
    "element-6066-11e4-a52e-4f735466cecf": "ff31a109-b81f-4808-a00a-1994110504a0"
  },
  {
    "element-6066-11e4-a52e-4f735466cecf": "2833af96-218f-437c-91b1-43e8b5d4ed18"
  },
  {
    "element-6066-11e4-a52e-4f735466cecf": "987f3e48-0985-4aa3-a7c0-514db902ccd5"
  },
  {
    "element-6066-11e4-a52e-4f735466cecf": "1157e121-4ad1-483d-b247-ab84add4d29b"
  },
  {
    "element-6066-11e4-a52e-4f735466cecf": "1005dadf-31a9-4cec-a6ca-b21721360c91"
  },
  {
    "element-6066-11e4-a52e-4f735466cecf": "54943fdb-3f30-4546-9f62-15376492a670"
  },
  {
    "element-6066-11e4-a52e-4f735466cecf": "225c28b7-efd9-4c72-b6b2-523ff5c93867"
  },
  {
    "element-6066-11e4-a52e-4f735466cecf": "1ad533f7-287d-43ca-b038-47378c705398"
  },
  {
    "element-6066-11e4-a52e-4f735466cecf": "65f5049c-a3e7-4641-8920-1d6535325e0f"
  },
  {
    "element-6066-11e4-a52e-4f735466cecf": "b4146894-697c-4d9d-9c78-73edffd6c61d"
  },
  {
    "element-6066-11e4-a52e-4f735466cecf": "154a493c-6722-43ed-b33c-88df84c7c3b8"
  },
  {
    "element-6066-11e4-a52e-4f735466cecf": "3daedddd-c1a2-4adf-a4ca-45fad0c723d1"
  },
  {
    "element-6066-11e4-a52e-4f735466cecf": "927316a9-9f61-417b-bc81-637829339244"
  },
  {
    "element-6066-11e4-a52e-4f735466cecf": "13fa10be-2e7f-455c-82e1-893ed55d437b"
  },
  {
    "element-6066-11e4-a52e-4f735466cecf": "5aaef61e-7ae8-4b86-9989-e0348994381d"
  },
  {
    "element-6066-11e4-a52e-4f735466cecf": "b642af11-e2bb-4393-a0c9-8f24a5c65bef"
  },
  {
    "element-6066-11e4-a52e-4f735466cecf": "a179a075-9d87-492e-825d-278ef2b94434"
  },
  {
    "element-6066-11e4-a52e-4f735466cecf": "820c01ee-795a-4141-a0d5-e4aa55decf12"
  },
  {
    "element-6066-11e4-a52e-4f735466cecf": "1c949e34-89ad-455c-ab8d-3eb1f1343bb3"
  },
  {
    "element-6066-11e4-a52e-4f735466cecf": "fb990046-3179-4d88-bd46-e3f978d90b38"
  },
  {
    "element-6066-11e4-a52e-4f735466cecf": "1b5bd692-19fb-4820-9e50-4dbeab3d44a5"
  },
  {
    "element-6066-11e4-a52e-4f735466cecf": "31de8c62-71b0-4404-abcc-5e04ebd98a90"
  },
  {
    "element-6066-11e4-a52e-4f735466cecf": "4ca2e9a5-2be9-43c6-b830-3d9e8791006c"
  },
  {
    "element-6066-11e4-a52e-4f735466cecf": "8c3c059a-c2c1-46bb-a6e1-592b56a776ff"
  },
  {
    "element-6066-11e4-a52e-4f735466cecf": "15eb66f8-0ca7-4c5a-a1a3-8512e0c31407"
  },
  {
    "element-6066-11e4-a52e-4f735466cecf": "d1ba9b55-22c5-4606-bc9f-cbb704162e21"
  },
  {
    "element-6066-11e4-a52e-4f735466cecf": "91312201-1742-4fd4-b0c5-6d533238fa9d"
  },
  {
    "element-6066-11e4-a52e-4f735466cecf": "bcc828b0-aa41-40bc-93d6-f276b455edd6"
  },
  {
    "element-6066-11e4-a52e-4f735466cecf": "f1c3ce53-19bd-4d4c-a5a2-94fc607fb5e4"
  },
  {
    "element-6066-11e4-a52e-4f735466cecf": "3ec6407c-fc10-4134-9a2d-83955367a08d"
  },
  {
    "element-6066-11e4-a52e-4f735466cecf": "47a94b7d-54e9-48d0-aa9b-460ef7dfe537"
  },
  {
    "element-6066-11e4-a52e-4f735466cecf": "256c6d2f-6157-412a-b4ac-f15eb71d480c"
  },
  {
    "element-6066-11e4-a52e-4f735466cecf": "91500412-a5e3-4a00-b0bf-292369dcdffc"
  },
  {
    "element-6066-11e4-a52e-4f735466cecf": "1491c280-1c7b-42a9-ae2c-fa34b37ab4dc"
  },
  {
    "element-6066-11e4-a52e-4f735466cecf": "c0c7aa16-9d2f-4f73-8607-dcb8d3156569"
  },
  {
    "element-6066-11e4-a52e-4f735466cecf": "7632c666-942f-4d7d-9a0a-64bc0c303306"
  },
  {
    "element-6066-11e4-a52e-4f735466cecf": "95e5a8f0-7f12-4157-9796-b848da21cb33"
  },
  {
    "element-6066-11e4-a52e-4f735466cecf": "5591a93d-045c-4f96-a297-ed20cbfb0a87"
  },
  {
    "element-6066-11e4-a52e-4f735466cecf": "0b68f6ea-3a72-4e1b-86be-64f2d90a611d"
  },
  {
    "element-6066-11e4-a52e-4f735466cecf": "9d19b9b0-d4ad-4f97-a2bf-03ec510a9d9f"
  },
  {
    "element-6066-11e4-a52e-4f735466cecf": "3139c922-0fb8-4c97-a939-61348336f77a"
  },
  {
    "element-6066-11e4-a52e-4f735466cecf": "b37bd367-71dc-4276-ab47-718b35a8f481"
  },
  {
    "element-6066-11e4-a52e-4f735466cecf": "48f76f92-93b2-4556-9120-97c54f2587e6"
  },
  {
    "element-6066-11e4-a52e-4f735466cecf": "1746b101-c93a-4456-9308-4b27c883fe31"
  },
  {
    "element-6066-11e4-a52e-4f735466cecf": "989cfdb7-52ef-4704-a9cb-9a0065ed5331"
  },
  {
    "element-6066-11e4-a52e-4f735466cecf": "63401746-307c-46a0-a021-9fa16c92acab"
  },
  {
    "element-6066-11e4-a52e-4f735466cecf": "e46d5b66-b91c-4d9e-9467-e47050bbb906"
  },
  {
    "element-6066-11e4-a52e-4f735466cecf": "b8f3c3e1-ffef-499c-9647-f82e3a1c2e2a"
  },
  {
    "element-6066-11e4-a52e-4f735466cecf": "91f6f387-e2c1-480c-953c-d40ba3be237e"
  },
  {
    "element-6066-11e4-a52e-4f735466cecf": "64ad0a71-3d42-46df-aa05-575b35078369"
  },
  {
    "element-6066-11e4-a52e-4f735466cecf": "421c9091-322b-45da-aab1-4f4879ef0c04"
  },
  {
    "element-6066-11e4-a52e-4f735466cecf": "2aba0355-6994-4f18-8a6a-5cf8d5a393a8"
  },
  {
    "element-6066-11e4-a52e-4f735466cecf": "140ff758-26a9-499c-b3aa-0c435567e038"
  },
  {
    "element-6066-11e4-a52e-4f735466cecf": "a9b518d2-1387-47b2-a4fe-f1bf51fe2d75"
  },
  {
    "element-6066-11e4-a52e-4f735466cecf": "b011712c-9d2e-4dd3-8743-83d01e5a6d6c"
  },
  {
    "element-6066-11e4-a52e-4f735466cecf": "116020b9-02a9-4ee6-824e-66e632a9f94e"
  },
  {
    "element-6066-11e4-a52e-4f735466cecf": "ac5cdb22-11eb-4228-84ea-cc3b2eaf0777"
  },
  {
    "element-6066-11e4-a52e-4f735466cecf": "04bf5a18-b719-48e7-99cd-9f4b431a80eb"
  },
  {
    "element-6066-11e4-a52e-4f735466cecf": "7fff1cb6-671b-47cd-9fdc-7979590b9d1e"
  },
  {
    "element-6066-11e4-a52e-4f735466cecf": "54972651-c696-4465-af40-a05569c69b9c"
  },
  {
    "element-6066-11e4-a52e-4f735466cecf": "456bf0c1-81e1-4d6b-9f08-565c00418658"
  },
  {
    "element-6066-11e4-a52e-4f735466cecf": "29e35466-0bed-44a9-8679-711bfa2d7987"
  },
  {
    "element-6066-11e4-a52e-4f735466cecf": "4c634196-cc76-4d0d-8706-bc8f7625eca4"
  },
  {
    "element-6066-11e4-a52e-4f735466cecf": "4074cad6-fc33-4789-a7ec-ce9f5ec03ab3"
  },
  {
    "element-6066-11e4-a52e-4f735466cecf": "461ec02f-ed03-4a29-b4ae-38bada5160ac"
  },
  {
    "element-6066-11e4-a52e-4f735466cecf": "2e8c198a-a382-4276-ad88-679b7395e39f"
  },
  {
    "element-6066-11e4-a52e-4f735466cecf": "23ea538d-cdac-43d1-be5f-f2330d034dc5"
  },
  {
    "element-6066-11e4-a52e-4f735466cecf": "a03c85a6-6027-4e42-8018-31654c0a1115"
  },
  {
    "element-6066-11e4-a52e-4f735466cecf": "7d5a01a0-9444-48b1-aae0-51c1dae91d33"
  },
  {
    "element-6066-11e4-a52e-4f735466cecf": "7174a502-e87c-4c59-ba1e-7dce714b80a3"
  },
  {
    "element-6066-11e4-a52e-4f735466cecf": "9fa5f1e6-65b5-4c94-a603-0852612a34e2"
  },
  {
    "element-6066-11e4-a52e-4f735466cecf": "545afde1-9de0-4436-8d04-ff7700e3b816"
  },
  {
    "element-6066-11e4-a52e-4f735466cecf": "cd88ee62-526f-4c46-82c3-7f0353dbb99c"
  },
  {
    "element-6066-11e4-a52e-4f735466cecf": "fe621829-4f94-44ae-9efc-6df417ce0e7a"
  },
  {
    "element-6066-11e4-a52e-4f735466cecf": "903021bd-4f7e-4cf8-8693-f25cdc77e971"
  }
]