[
  {
    "element-6066-11e4-a52e-4f735466cecf": "d1093f72-7aa9-4dc3-8694-3e3938032cff"
  },
  {
    "element-6066-11e4-a52e-4f735466cecf": "74fa98ef-37a0-483c-92e7-f66be7b2fded"
  },
  {
    "element-6066-11e4-a52e-4f735466cecf": "a2da13b6-0e9b-4317-beb4-25bc9304b86c"
  },
  {
    "element-6066-11e4-a52e-4f735466cecf": "58b207c6-b0c2-4751-bf44-119b0e63690b"
  },
  {
    "element-6066-11e4-a52e-4f735466cecf": "fd1a6dc8-8e05-4ca3-aad6-bb1b66d88973"
  },
  {
    "element-6066-11e4-a52e-4f735466cecf": "d25a18ed-1abc-426a-a681-5179318c37d5"
  },
  {
    "element-6066-11e4-a52e-4f735466cecf": "71f37dfb-b570-490c-bfd5-12cc0eec24df"
  },
  {
    "element-6066-11e4-a52e-4f735466cecf": "c0e137a6-ac68-40e6-8932-b446c9392bb3"
  },
  {
    "element-6066-11e4-a52e-4f735466cecf": "4b34870f-f841-43ad-a91e-1b3b0dcdb2c8"
  },
  {
    "element-6066-11e4-a52e-4f735466cecf": "051778bb-e071-443e-9db4-1c7664e5cade"
  },
  {
    "element-6066-11e4-a52e-4f735466cecf": "23b51e06-b827-49e2-a22e-78079e75ebee"
  },
  {
    "element-6066-11e4-a52e-4f735466cecf": "913b8129-38dc-4285-83eb-65630bb7fdec"
  },
  {
    "element-6066-11e4-a52e-4f735466cecf": "f010f95d-5872-4fc9-ad9b-214c49f8d6dc"
  },
  {
    "element-6066-11e4-a52e-4f735466cecf": "3ef64761-6828-49f5-b32c-ca48058b2446"
  },
  {
    "element-6066-11e4-a52e-4f735466cecf": "c1b18d74-1669-41bc-af8d-37df6c732986"
  },
  {
    "element-6066-11e4-a52e-4f735466cecf": "853b9c07-7027-4545-910f-b1766c0c1a29"
  },
  {
    "element-6066-11e4-a52e-4f735466cecf": "cf8211df-3b24-4d5b-94f8-6d49a62634e6"
  },
  {
    "element-6066-11e4-a52e-4f735466cecf": "96e36260-8a9e-4ca8-b889-e6214ad4fdce"
  }
]