[
  {
    "element-6066-11e4-a52e-4f735466cecf": "ab2b931c-8afa-48bc-adfc-d87b6b26f8ee"
  },
  {
    "element-6066-11e4-a52e-4f735466cecf": "48da230a-23d9-4ec8-acd4-2adf3d5759cf"
  },
  {
    "element-6066-11e4-a52e-4f735466cecf": "14f2b5c3-a55e-4f7c-97bc-4335667edff2"
  },
  {
    "element-6066-11e4-a52e-4f735466cecf": "db925937-b579-40e4-a66b-70696546797c"
  },
  {
    "element-6066-11e4-a52e-4f735466cecf": "02f489c5-55cd-4f14-bd71-a0d336cc3576"
  },
  {
    "element-6066-11e4-a52e-4f735466cecf": "fd2faea6-6570-4abf-b862-d19dcc7174a0"
  },
  {
    "element-6066-11e4-a52e-4f735466cecf": "dc3bf09e-aa97-4159-a82b-ab85d24ca1e2"
  },
  {
    "element-6066-11e4-a52e-4f735466cecf": "4485ec12-5272-4b9a-b41f-dc156173c3f9"
  },
  {
    "element-6066-11e4-a52e-4f735466cecf": "2d98c85b-0d77-4fd9-9645-32bc23680571"
  },
  {
    "element-6066-11e4-a52e-4f735466cecf": "d2254cea-eab5-4b52-b2ff-1c96e0ca13b2"
  },
  {
    "element-6066-11e4-a52e-4f735466cecf": "31409fdb-8d46-47d6-8ffb-2af9106d4cad"
  },
  {
    "element-6066-11e4-a52e-4f735466cecf": "4790f937-a067-43a1-946c-0b59f696069c"
  },
  {
    "element-6066-11e4-a52e-4f735466cecf": "ceb61e4b-0851-47ff-9ae8-48eb139c802a"
  },
  {
    "element-6066-11e4-a52e-4f735466cecf": "4f58f857-2ec0-4d05-8db6-63a31b61d0b1"
  },
  {
    "element-6066-11e4-a52e-4f735466cecf": "2457fe95-ffcc-45c6-8e73-179f647f33a9"
  },
  {
    "element-6066-11e4-a52e-4f735466cecf": "f303a137-2c63-47d9-aded-cd10d0c2775f"
  },
  {
    "element-6066-11e4-a52e-4f735466cecf": "e7a66afc-45f5-41a3-94c1-eb8f5c6387bd"
  },
  {
    "element-6066-11e4-a52e-4f735466cecf": "266c477e-c91e-4f11-843b-7ae1580d1a92"
  },
  {
    "element-6066-11e4-a52e-4f735466cecf": "c91d6ee4-36ee-49b2-a706-6e876e773432"
  },
  {
    "element-6066-11e4-a52e-4f735466cecf": "c446ea53-2d19-4d3b-ac66-7a99a593ac11"
  },
  {
    "element-6066-11e4-a52e-4f735466cecf": "de364788-15bc-4f14-91da-e64bb6d51955"
  },
  {
    "element-6066-11e4-a52e-4f735466cecf": "5be0a3ba-eb44-47d0-85ce-1ba70805cbd9"
  },
  {
    "element-6066-11e4-a52e-4f735466cecf": "d9e5da79-85d0-4295-b15f-cd0e6a5e29bb"
  },
  {
    "element-6066-11e4-a52e-4f735466cecf": "09f425dc-c477-492b-a217-5ee807b34e59"
  },
  {
    "element-6066-11e4-a52e-4f735466cecf": "e63264af-f615-4804-b147-0b72322698ec"
  },
  {
    "element-6066-11e4-a52e-4f735466cecf": "b61642b3-4807-4c02-8568-7d2506e408c5"
  },
  {
    "element-6066-11e4-a52e-4f735466cecf": "2025a019-2f6b-47be-ba39-cda3589cd252"
  },
  {
    "element-6066-11e4-a52e-4f735466cecf": "cfef468c-a65f-4cb2-9fad-94c668acea07"
  },
  {
    "element-6066-11e4-a52e-4f735466cecf": "683f2666-6cfa-4afc-b457-160793ca5071"
  },
  {
    "element-6066-11e4-a52e-4f735466cecf": "1c092dbe-b2e5-46a1-9959-a16d4ad44b6d"
  },
  {
    "element-6066-11e4-a52e-4f735466cecf": "ac0d15ca-b49e-4842-babc-202b76f6c43d"
  },
  {
    "element-6066-11e4-a52e-4f735466cecf": "5dda7aef-9d94-4097-8497-cc01d8cb5e07"
  },
  {
    "element-6066-11e4-a52e-4f735466cecf": "011b0302-227e-43d7-bc44-8becc7262cad"
  },
  {
    "element-6066-11e4-a52e-4f735466cecf": "a285df69-9fbd-44ae-b42b-8b0dfb0d0164"
  },
  {
    "element-6066-11e4-a52e-4f735466cecf": "5c8446ad-ebf0-4cee-883d-eb167dcaab5f"
  },
  {
    "element-6066-11e4-a52e-4f735466cecf": "ce9f9942-3b3a-43de-af4f-e95dd43d3d13"
  },
  {
    "element-6066-11e4-a52e-4f735466cecf": "bc24cdb4-7e02-4425-ab65-21e84f3d100b"
  },
  {
    "element-6066-11e4-a52e-4f735466cecf": "1bc227c9-ab0e-4e40-bc91-482413574325"
  },
  {
    "element-6066-11e4-a52e-4f735466cecf": "9b2a53ce-a035-47b5-9f09-332493626372"
  },
  {
    "element-6066-11e4-a52e-4f735466cecf": "e4fad467-e68a-4e4a-aa6d-4eabf7c9c480"
  },
  {
    "element-6066-11e4-a52e-4f735466cecf": "c9e698d4-48fa-4a07-9e16-d6b829cbd700"
  },
  {
    "element-6066-11e4-a52e-4f735466cecf": "408da05c-b0ac-4cb3-ad8b-0fcef9151cfb"
  },
  {
    "element-6066-11e4-a52e-4f735466cecf": "3b47ae23-9548-464f-863d-1c1dd740457f"
  },
  {
    "element-6066-11e4-a52e-4f735466cecf": "4c633b59-bd06-44aa-9d5b-543875e6e893"
  },
  {
    "element-6066-11e4-a52e-4f735466cecf": "39b7d20a-534c-46a5-98d7-23a4997b79a1"
  },
  {
    "element-6066-11e4-a52e-4f735466cecf": "9ade8b09-b3f1-4c0d-b22e-a9651de879e7"
  },
  {
    "element-6066-11e4-a52e-4f735466cecf": "7548d6f9-735e-498e-8295-68201ae9a36b"
  },
  {
    "element-6066-11e4-a52e-4f735466cecf": "ae86bc6e-1377-462c-8da2-f0364c170df0"
  },
  {
    "element-6066-11e4-a52e-4f735466cecf": "8bc522b5-bac1-47ea-8535-fc439d323eb7"
  },
  {
    "element-6066-11e4-a52e-4f735466cecf": "d960a657-45d7-41a5-8454-65a6c8dcfbdb"
  },
  {
    "element-6066-11e4-a52e-4f735466cecf": "ee28684b-a91f-48db-9d38-8a0992e01b43"
  },
  {
    "element-6066-11e4-a52e-4f735466cecf": "18fb6109-2c66-4fcb-8bc8-d68809793381"
  },
  {
    "element-6066-11e4-a52e-4f735466cecf": "ad2dfada-c852-4627-b5dc-e2c72dbf8275"
  },
  {
    "element-6066-11e4-a52e-4f735466cecf": "1d7e585a-4ab6-46ec-ab0c-730ad9696c01"
  },
  {
    "element-6066-11e4-a52e-4f735466cecf": "e86ce143-55a4-44c3-87c7-a6ad22c4d65e"
  },
  {
    "element-6066-11e4-a52e-4f735466cecf": "204e2d13-fc35-4ca5-956b-af431048a98c"
  },
  {
    "element-6066-11e4-a52e-4f735466cecf": "36790c0c-33a4-42a1-adf4-e6699da4236b"
  },
  {
    "element-6066-11e4-a52e-4f735466cecf": "89b2f1df-aec1-4201-ac22-a60deabc9b6a"
  },
  {
    "element-6066-11e4-a52e-4f735466cecf": "2e2be93e-a700-42ee-b22b-a2dba61ffd7f"
  },
  {
    "element-6066-11e4-a52e-4f735466cecf": "0f85ed83-dcce-4d04-bc15-3240bfd989e4"
  },
  {
    "element-6066-11e4-a52e-4f735466cecf": "f0c98aff-a577-4fd6-b128-64fa74409621"
  },
  {
    "element-6066-11e4-a52e-4f735466cecf": "b14a8e92-6d69-4c04-8129-2890bdad159b"
  },
  {
    "element-6066-11e4-a52e-4f735466cecf": "55ac0bc4-72f4-4533-aa64-b1857be40103"
  },
  {
    "element-6066-11e4-a52e-4f735466cecf": "aba48065-1608-4a32-a2d7-2db62936dbc0"
  },
  {
    "element-6066-11e4-a52e-4f735466cecf": "c699b05a-b675-4456-97ee-2933563695af"
  },
  {
    "element-6066-11e4-a52e-4f735466cecf": "65e6b2ad-b283-433b-8cb0-cbdcac427041"
  },
  {
    "element-6066-11e4-a52e-4f735466cecf": "75d62b43-c413-46d8-8398-d71c41cfe932"
  },
  {
    "element-6066-11e4-a52e-4f735466cecf": "c13842b4-80cc-4c96-b304-2c4aff6b61a2"
  },
  {
    "element-6066-11e4-a52e-4f735466cecf": "363d631f-60de-4dfa-94c1-0c8f3f999a56"
  },
  {
    "element-6066-11e4-a52e-4f735466cecf": "9afdd258-51f0-483d-be4f-6f934bca0659"
  },
  {
    "element-6066-11e4-a52e-4f735466cecf": "f2e0b8d7-c0ec-4a45-9ec3-b1c112356c0e"
  },
  {
    "element-6066-11e4-a52e-4f735466cecf": "decf0937-40b4-4223-abd1-c9e6104839c8"
  },
  {
    "element-6066-11e4-a52e-4f735466cecf": "12c0b34c-7fb8-404b-ba8d-d5255c901c84"
  },
  {
    "element-6066-11e4-a52e-4f735466cecf": "af08a838-c9fc-4f42-b220-5fbf94c3d3a7"
  },
  {
    "element-6066-11e4-a52e-4f735466cecf": "2f9c6486-ce7b-4e0b-9b0b-4533352b5083"
  },
  {
    "element-6066-11e4-a52e-4f735466cecf": "f446f052-711d-4a66-bde8-11c8369484aa"
  },
  {
    "element-6066-11e4-a52e-4f735466cecf": "baad59ae-cd42-4b01-8d13-b0923416af9a"
  },
  {
    "element-6066-11e4-a52e-4f735466cecf": "43be1ac1-80c8-4ae4-85ed-7c8415a3b7f3"
  },
  {
    "element-6066-11e4-a52e-4f735466cecf": "938bdcf2-58c0-4bfd-b920-471e3bf7b433"
  },
  {
    "element-6066-11e4-a52e-4f735466cecf": "795c959c-d9da-428a-9b2e-576af92d822b"
  },
  {
    "element-6066-11e4-a52e-4f735466cecf": "d753e3e8-9755-4c4e-a7cd-339b4c499a0c"
  }
]