[
  {
    "element-6066-11e4-a52e-4f735466cecf": "bbd2b343-1de5-4909-a3e9-76b9b2ec3680"
  },
  {
    "element-6066-11e4-a52e-4f735466cecf": "4ba67eca-874c-4a99-9082-0a22d70e2776"
  },
  {
    "element-6066-11e4-a52e-4f735466cecf": "fca85b51-e631-43db-b5fd-615c9902b632"
  },
  {
    "element-6066-11e4-a52e-4f735466cecf": "49b2cb01-4ebe-4d15-b0fc-1417ec95b079"
  },
  {
    "element-6066-11e4-a52e-4f735466cecf": "72c24025-d1b0-4a19-8460-b5299e4a6aa2"
  },
  {
    "element-6066-11e4-a52e-4f735466cecf": "d8217372-3b7d-429d-8252-10f43c1ff21a"
  },
  {
    "element-6066-11e4-a52e-4f735466cecf": "239cf843-799c-4f2d-b45a-e47394135344"
  },
  {
    "element-6066-11e4-a52e-4f735466cecf": "8b2e89c9-31a9-49f6-8972-20785daec72d"
  },
  {
    "element-6066-11e4-a52e-4f735466cecf": "f161d85c-1d0e-4221-b846-e4a79b836e4f"
  },
  {
    "element-6066-11e4-a52e-4f735466cecf": "bde35a9d-6de5-4482-9631-47fc0233616d"
  },
  {
    "element-6066-11e4-a52e-4f735466cecf": "270eb56d-5216-4ae4-a8e9-ffe3b955b38c"
  },
  {
    "element-6066-11e4-a52e-4f735466cecf": "09919d4b-7831-4c16-ade8-d85d01816f86"
  },
  {
    "element-6066-11e4-a52e-4f735466cecf": "c89af273-92e4-4a1b-92fa-214643cac542"
  },
  {
    "element-6066-11e4-a52e-4f735466cecf": "c1cbd7bd-b8f9-46ca-87ac-45941734b642"
  },
  {
    "element-6066-11e4-a52e-4f735466cecf": "fa3bd5b4-c361-4805-8312-16a4f01ad201"
  },
  {
    "element-6066-11e4-a52e-4f735466cecf": "9582b379-efe4-4d81-9d46-29138533b80b"
  },
  {
    "element-6066-11e4-a52e-4f735466cecf": "c60d6fe1-5bd0-4048-a16e-5ae800750c14"
  },
  {
    "element-6066-11e4-a52e-4f735466cecf": "d580fd76-c7f4-47f0-a353-d867df1099e0"
  },
  {
    "element-6066-11e4-a52e-4f735466cecf": "cb328d4c-e9c4-4c0d-81c5-125b85c1f13b"
  },
  {
    "element-6066-11e4-a52e-4f735466cecf": "f4b17875-9775-4173-8979-d6144d32c439"
  },
  {
    "element-6066-11e4-a52e-4f735466cecf": "f0869b3a-8f21-475a-a355-41d0bc6d4761"
  },
  {
    "element-6066-11e4-a52e-4f735466cecf": "0301b1bd-2f12-4501-ab71-ecd16993899c"
  },
  {
    "element-6066-11e4-a52e-4f735466cecf": "bd38c9fb-0817-4876-bbf0-c7900f03c540"
  },
  {
    "element-6066-11e4-a52e-4f735466cecf": "3f7f5624-c153-4b04-b092-2abc9ba34b7a"
  }
]