[
  {
    "element-6066-11e4-a52e-4f735466cecf": "227d555e-e716-49cc-9449-76b7bacf040e"
  },
  {
    "element-6066-11e4-a52e-4f735466cecf": "68ea3ee2-d786-4114-aa3a-50e791e371ac"
  },
  {
    "element-6066-11e4-a52e-4f735466cecf": "35e80064-50a1-4b63-8774-a6ba85172f8a"
  },
  {
    "element-6066-11e4-a52e-4f735466cecf": "679da79b-0477-4930-8faf-c7868afb98c4"
  },
  {
    "element-6066-11e4-a52e-4f735466cecf": "9358360e-c30f-444a-b91a-96b3130ea52f"
  },
  {
    "element-6066-11e4-a52e-4f735466cecf": "fbb518d2-545e-419a-9f09-4178b85d0d8e"
  },
  {
    "element-6066-11e4-a52e-4f735466cecf": "286a612c-053f-4994-b06b-97fe4057c346"
  },
  {
    "element-6066-11e4-a52e-4f735466cecf": "a59d8ce4-909a-4a02-8d87-199a264b838b"
  },
  {
    "element-6066-11e4-a52e-4f735466cecf": "d0e3b923-980f-4ae3-9a7e-f4d4e63a3841"
  },
  {
    "element-6066-11e4-a52e-4f735466cecf": "0f1f4fae-15d6-478c-9395-34a7393fbec5"
  },
  {
    "element-6066-11e4-a52e-4f735466cecf": "1b23dcac-1634-42a0-b002-b8ff7c212498"
  },
  {
    "element-6066-11e4-a52e-4f735466cecf": "0add2d62-8ee1-4c4f-90b7-67172ef5dc6e"
  },
  {
    "element-6066-11e4-a52e-4f735466cecf": "127f6942-4353-4f6c-bd22-5ed532de23b6"
  },
  {
    "element-6066-11e4-a52e-4f735466cecf": "13162243-4432-4358-9bb4-88e4f61e3704"
  },
  {
    "element-6066-11e4-a52e-4f735466cecf": "9d013517-4cfc-414b-955e-82e794b939a1"
  },
  {
    "element-6066-11e4-a52e-4f735466cecf": "a3d2f958-6575-4ce3-83e2-125bbca83b43"
  },
  {
    "element-6066-11e4-a52e-4f735466cecf": "3c1c15f5-52a3-4870-b68a-9265a3a76be8"
  },
  {
    "element-6066-11e4-a52e-4f735466cecf": "29f6853b-23b5-4299-a13a-2fb63d034a72"
  },
  {
    "element-6066-11e4-a52e-4f735466cecf": "765c106e-2146-47f1-a263-f7c320f13109"
  },
  {
    "element-6066-11e4-a52e-4f735466cecf": "a68c4adf-e081-4fda-a2a9-d6946f5bf4be"
  },
  {
    "element-6066-11e4-a52e-4f735466cecf": "c5f4b2d6-d7e9-45a7-9e6f-dcf5d9f77d21"
  },
  {
    "element-6066-11e4-a52e-4f735466cecf": "ffe80b68-f12e-4cc3-b20f-cd91654afb87"
  },
  {
    "element-6066-11e4-a52e-4f735466cecf": "51b09be2-ec7e-41e3-9f9e-78c95b3b6411"
  },
  {
    "element-6066-11e4-a52e-4f735466cecf": "ef7adb1f-0a3d-41a3-bc2a-7323818a6262"
  }
]