[
  {
    "element-6066-11e4-a52e-4f735466cecf": "cb746434-36f3-4589-b8e4-400630261334"
  },
  {
    "element-6066-11e4-a52e-4f735466cecf": "6fe2c2b4-17dd-4a11-8eaf-0bb2f692aedc"
  },
  {
    "element-6066-11e4-a52e-4f735466cecf": "705c23ac-80f5-46ae-998d-2daf2528a4ee"
  },
  {
    "element-6066-11e4-a52e-4f735466cecf": "05c98c03-2bde-4d8b-8440-eadc10dfdc0d"
  },
  {
    "element-6066-11e4-a52e-4f735466cecf": "ff8386d7-b3bf-4e5e-8806-5c46f7507664"
  },
  {
    "element-6066-11e4-a52e-4f735466cecf": "02612a87-c8de-4dca-ac57-c2a4c4bd7fb9"
  },
  {
    "element-6066-11e4-a52e-4f735466cecf": "207d7cce-aaac-49f1-b3e5-33703f23e443"
  },
  {
    "element-6066-11e4-a52e-4f735466cecf": "726e0a73-686a-48d4-b349-cd89255e77fe"
  },
  {
    "element-6066-11e4-a52e-4f735466cecf": "4708eb07-80ac-4f35-958b-353e017d4e1c"
  },
  {
    "element-6066-11e4-a52e-4f735466cecf": "b087cf2d-23df-468f-b48a-6f85c21e9a67"
  },
  {
    "element-6066-11e4-a52e-4f735466cecf": "3546f0c7-ddf9-4c3f-b43d-e74c5c6e1467"
  },
  {
    "element-6066-11e4-a52e-4f735466cecf": "097d6e74-488c-4043-96dd-90ab0dccc325"
  },
  {
    "element-6066-11e4-a52e-4f735466cecf": "f261a8bb-455a-4248-b1c8-0055b4fd8e89"
  },
  {
    "element-6066-11e4-a52e-4f735466cecf": "8c63e429-f52f-44eb-a243-3e2ececf5824"
  },
  {
    "element-6066-11e4-a52e-4f735466cecf": "ca36f7e0-fbc0-4b5d-9f67-10259c6eab8d"
  },
  {
    "element-6066-11e4-a52e-4f735466cecf": "4abaf271-516d-408b-9941-35f4b37841cb"
  },
  {
    "element-6066-11e4-a52e-4f735466cecf": "aca87ad6-5339-490f-a05a-59b1aa0b46a7"
  },
  {
    "element-6066-11e4-a52e-4f735466cecf": "3e8b8529-d9fd-49bf-b96b-600d01763842"
  }
]