[
  {
    "element-6066-11e4-a52e-4f735466cecf": "06e54273-c293-4c26-8fce-71f137339bd4"
  },
  {
    "element-6066-11e4-a52e-4f735466cecf": "d9c7d8f2-a02e-4592-8142-795e9cee3c92"
  },
  {
    "element-6066-11e4-a52e-4f735466cecf": "98523f92-c599-45eb-9e72-b8652d119854"
  },
  {
    "element-6066-11e4-a52e-4f735466cecf": "49c16a7c-01db-4682-8d6a-6dee7d9cdcb7"
  },
  {
    "element-6066-11e4-a52e-4f735466cecf": "8a71cfcc-3b6d-4343-8e21-7fdf24f63622"
  },
  {
    "element-6066-11e4-a52e-4f735466cecf": "d74b365f-125e-434b-97ed-88f8d8d9b1f8"
  },
  {
    "element-6066-11e4-a52e-4f735466cecf": "c63f9604-8b50-453d-af1a-d8e0bcbc1683"
  },
  {
    "element-6066-11e4-a52e-4f735466cecf": "e0eedd7e-4fcf-4a0c-b925-a53f1021aa82"
  },
  {
    "element-6066-11e4-a52e-4f735466cecf": "3edccfeb-5297-451b-976a-74c2438247fa"
  },
  {
    "element-6066-11e4-a52e-4f735466cecf": "9f6cabe1-e5da-4a95-b7a7-e91ad6710423"
  },
  {
    "element-6066-11e4-a52e-4f735466cecf": "c0207967-70dc-47cb-ab6f-64c04f791867"
  },
  {
    "element-6066-11e4-a52e-4f735466cecf": "1e625f57-094e-4877-bba2-b8c6b5408e3e"
  },
  {
    "element-6066-11e4-a52e-4f735466cecf": "f400ade2-65d0-418b-98e5-bb52195b1c52"
  },
  {
    "element-6066-11e4-a52e-4f735466cecf": "075e9a95-3f47-4599-ae75-5e6f904d26f9"
  },
  {
    "element-6066-11e4-a52e-4f735466cecf": "33c53d93-75a2-4424-92df-7a9a2f45a3bc"
  },
  {
    "element-6066-11e4-a52e-4f735466cecf": "d2532f58-62a4-4a8a-996c-e3aced7b14cf"
  },
  {
    "element-6066-11e4-a52e-4f735466cecf": "78fd96c9-c0ab-4d10-9fb7-7643cceff284"
  },
  {
    "element-6066-11e4-a52e-4f735466cecf": "e0fe9ca7-5a76-42a5-bcb3-f19f807b25f8"
  },
  {
    "element-6066-11e4-a52e-4f735466cecf": "8de610a5-3fb9-4b6d-a580-240b0385feec"
  },
  {
    "element-6066-11e4-a52e-4f735466cecf": "3b6b631e-4c54-417f-82ef-afb058a4b4f9"
  },
  {
    "element-6066-11e4-a52e-4f735466cecf": "f0cedd71-7df8-45bd-866b-bd61263284b2"
  },
  {
    "element-6066-11e4-a52e-4f735466cecf": "47644835-7f36-4084-8d14-e04f8ce7a1ca"
  },
  {
    "element-6066-11e4-a52e-4f735466cecf": "d51381d1-409a-42e7-a43f-ee955aa95695"
  },
  {
    "element-6066-11e4-a52e-4f735466cecf": "3a0ae7c9-67bf-4983-b235-ddd1d110b9a8"
  }
]