[
  {
    "element-6066-11e4-a52e-4f735466cecf": "618978b5-5155-42d0-880b-7c83e103d327"
  },
  {
    "element-6066-11e4-a52e-4f735466cecf": "90c7e5a9-569e-4e46-91ad-f575d3b30f71"
  },
  {
    "element-6066-11e4-a52e-4f735466cecf": "ac812e32-900a-439d-ab92-e078fbf905a8"
  },
  {
    "element-6066-11e4-a52e-4f735466cecf": "2a4ce29a-03d5-4fe3-bd9b-99b8a5f712b2"
  },
  {
    "element-6066-11e4-a52e-4f735466cecf": "b648dd5d-d05a-4772-a8d0-40e038e9913c"
  },
  {
    "element-6066-11e4-a52e-4f735466cecf": "012cc237-a441-4a3b-907b-74134141f1ff"
  },
  {
    "element-6066-11e4-a52e-4f735466cecf": "1f48b726-7499-4e57-bc4b-5ec38bad09fb"
  },
  {
    "element-6066-11e4-a52e-4f735466cecf": "1a755b07-a79d-42f1-9cc2-a9ebff71d445"
  },
  {
    "element-6066-11e4-a52e-4f735466cecf": "708f63d5-a380-46a8-90f6-b2bfcd1ad42c"
  },
  {
    "element-6066-11e4-a52e-4f735466cecf": "f32e33e9-4340-4b68-ac5c-28201d4c0189"
  },
  {
    "element-6066-11e4-a52e-4f735466cecf": "457633fe-4876-4bd0-9485-2b119e0ae27f"
  },
  {
    "element-6066-11e4-a52e-4f735466cecf": "bd53c188-0087-4284-9313-be6540d2311c"
  },
  {
    "element-6066-11e4-a52e-4f735466cecf": "96914451-3149-45cd-a6fc-2d3c5809b87a"
  },
  {
    "element-6066-11e4-a52e-4f735466cecf": "ddda633e-e8fa-4bc2-ab80-cc250016ca15"
  },
  {
    "element-6066-11e4-a52e-4f735466cecf": "92c9dcca-5bbb-4e76-8fa2-838cd2f56c60"
  },
  {
    "element-6066-11e4-a52e-4f735466cecf": "24374d7c-4421-4639-a19e-faad2c2c1ccf"
  },
  {
    "element-6066-11e4-a52e-4f735466cecf": "b7d88fb5-6a6c-435c-a22c-0487aaa52ff1"
  },
  {
    "element-6066-11e4-a52e-4f735466cecf": "2f44e8e8-9dcd-4c3e-98d0-3199e7dd42f4"
  }
]