[
  {
    "element-6066-11e4-a52e-4f735466cecf": "7576a3ee-c7b0-4d88-bbf2-dc7df75f7717"
  },
  {
    "element-6066-11e4-a52e-4f735466cecf": "23885301-5b8c-4b97-9d2b-ce808f4f46e6"
  },
  {
    "element-6066-11e4-a52e-4f735466cecf": "54d37577-a93d-41b7-b5e0-b88334c9909b"
  },
  {
    "element-6066-11e4-a52e-4f735466cecf": "9633f956-f974-4147-9088-4d284a81c42c"
  },
  {
    "element-6066-11e4-a52e-4f735466cecf": "dafb09ef-58d4-4955-91b0-d142feeb9ba7"
  },
  {
    "element-6066-11e4-a52e-4f735466cecf": "e2c40ba3-ae2b-4e3f-a447-d8842c57c14b"
  },
  {
    "element-6066-11e4-a52e-4f735466cecf": "d7113d35-86e6-4dd3-8b2c-8dbd62041468"
  }
]