[
  {
    "element-6066-11e4-a52e-4f735466cecf": "5f003202-b460-4955-acbb-d4fbbd16da04"
  },
  {
    "element-6066-11e4-a52e-4f735466cecf": "4dbeebe8-d560-4b74-a593-359a28e1df5f"
  },
  {
    "element-6066-11e4-a52e-4f735466cecf": "f00e7c7f-1dda-4bcc-aa25-43238ab75b29"
  },
  {
    "element-6066-11e4-a52e-4f735466cecf": "608794bc-2f6c-4c5c-9ef6-c33114257ddd"
  },
  {
    "element-6066-11e4-a52e-4f735466cecf": "8c2f1c57-5a6a-4fd3-9789-126bc71ab009"
  },
  {
    "element-6066-11e4-a52e-4f735466cecf": "6f4049d2-85c3-4e9e-9c45-37bef7259e69"
  },
  {
    "element-6066-11e4-a52e-4f735466cecf": "e741c2fc-084f-4a54-9f70-a4fef8beb134"
  },
  {
    "element-6066-11e4-a52e-4f735466cecf": "9c2aecd5-c102-4889-b25c-2645a011f5f9"
  },
  {
    "element-6066-11e4-a52e-4f735466cecf": "91f1cbf6-b1a4-445e-bc42-db07208e9f00"
  },
  {
    "element-6066-11e4-a52e-4f735466cecf": "921efc7b-621a-44ae-9b0f-456db7bdfa7a"
  },
  {
    "element-6066-11e4-a52e-4f735466cecf": "8c5be2b5-4374-4128-9854-9d37ae5f20d1"
  },
  {
    "element-6066-11e4-a52e-4f735466cecf": "86028772-f49f-439f-9fb1-2fc3792d0024"
  },
  {
    "element-6066-11e4-a52e-4f735466cecf": "36ae649a-1f02-4e2a-8df9-8ed3f13e559e"
  },
  {
    "element-6066-11e4-a52e-4f735466cecf": "a3554f52-1ba5-4582-89b4-3bb1d2a943a1"
  },
  {
    "element-6066-11e4-a52e-4f735466cecf": "bae8dfff-6615-4400-875b-ec2301aadcf7"
  },
  {
    "element-6066-11e4-a52e-4f735466cecf": "a60ac090-390b-44c1-bba5-baeac309ff80"
  },
  {
    "element-6066-11e4-a52e-4f735466cecf": "fd49bd6c-6572-4fc2-9365-18835b14c30b"
  },
  {
    "element-6066-11e4-a52e-4f735466cecf": "fe799958-905f-499e-8e60-003e5d788fe5"
  },
  {
    "element-6066-11e4-a52e-4f735466cecf": "5c8ff571-3c43-4551-aebd-ff9459c9e7ba"
  },
  {
    "element-6066-11e4-a52e-4f735466cecf": "83564edb-0bd9-4552-8b99-e63d7d416850"
  },
  {
    "element-6066-11e4-a52e-4f735466cecf": "a8256e5e-8f54-40b5-9168-4e867415410b"
  },
  {
    "element-6066-11e4-a52e-4f735466cecf": "68e660ea-c039-477b-8bb5-a327c237cedc"
  },
  {
    "element-6066-11e4-a52e-4f735466cecf": "e3cb03a1-765a-4202-8af5-635fe57faa98"
  },
  {
    "element-6066-11e4-a52e-4f735466cecf": "690072ce-fd21-4c52-9547-91036ce1524a"
  }
]