[
  {
    "element-6066-11e4-a52e-4f735466cecf": "f717173b-1606-4fdc-acde-d4a2b63b54b2"
  },
  {
    "element-6066-11e4-a52e-4f735466cecf": "0cdffbf6-cbec-411d-b995-9092b65e8e8b"
  },
  {
    "element-6066-11e4-a52e-4f735466cecf": "4d6d5736-4f79-4f0d-bc38-404240a04de6"
  },
  {
    "element-6066-11e4-a52e-4f735466cecf": "60d09c94-f9fd-4887-b6bd-59ae9b02ee7d"
  },
  {
    "element-6066-11e4-a52e-4f735466cecf": "a18e6a26-0e24-480b-b5c7-ccf978e212dc"
  },
  {
    "element-6066-11e4-a52e-4f735466cecf": "07f3c18b-52ab-4d0c-960e-6a4358870d2f"
  },
  {
    "element-6066-11e4-a52e-4f735466cecf": "16e891fa-c111-4d65-97ea-6bb2028fba6f"
  },
  {
    "element-6066-11e4-a52e-4f735466cecf": "fa79cc82-52fc-4e87-a990-7260f8342dcd"
  },
  {
    "element-6066-11e4-a52e-4f735466cecf": "80bcd2ed-dc5f-4dac-bff2-4e7903ecf5d4"
  },
  {
    "element-6066-11e4-a52e-4f735466cecf": "e953eee5-56ac-428e-acf6-59c40d1b17a5"
  },
  {
    "element-6066-11e4-a52e-4f735466cecf": "14c93b51-e1af-4c2f-b492-8f1fd8a192e5"
  },
  {
    "element-6066-11e4-a52e-4f735466cecf": "e82c0a06-9abc-4642-bb8d-f858b809d73a"
  },
  {
    "element-6066-11e4-a52e-4f735466cecf": "823a81e5-06ee-488b-9a67-670fc5262f06"
  },
  {
    "element-6066-11e4-a52e-4f735466cecf": "4bb621a6-88ea-4e9f-b2ff-3fe56ee46d2e"
  },
  {
    "element-6066-11e4-a52e-4f735466cecf": "a213b03b-ff95-4659-8125-4f4081230260"
  },
  {
    "element-6066-11e4-a52e-4f735466cecf": "81d259c0-562c-46b8-a227-c7fed142971e"
  },
  {
    "element-6066-11e4-a52e-4f735466cecf": "378af578-ecae-47cc-9c83-b756f9d587f6"
  },
  {
    "element-6066-11e4-a52e-4f735466cecf": "a3bd8eda-ca39-41bf-9780-c408265b7f1c"
  },
  {
    "element-6066-11e4-a52e-4f735466cecf": "85ad2f23-c422-42a4-83be-c88f80447ae6"
  },
  {
    "element-6066-11e4-a52e-4f735466cecf": "57e9d8a6-1419-414a-ab99-14360a9a9844"
  },
  {
    "element-6066-11e4-a52e-4f735466cecf": "0c03d963-b924-4f02-9375-0268d2a2eadd"
  },
  {
    "element-6066-11e4-a52e-4f735466cecf": "306e18bc-13b1-4882-8460-cc33f069bdb5"
  },
  {
    "element-6066-11e4-a52e-4f735466cecf": "03e33004-c332-427e-b8d6-dbafab5c9b69"
  },
  {
    "element-6066-11e4-a52e-4f735466cecf": "7190d153-6167-44a8-8ab5-f7b114618d1d"
  }
]