[
  {
    "element-6066-11e4-a52e-4f735466cecf": "a32d7f00-6e18-45ff-a3a3-4c65dfa985de"
  },
  {
    "element-6066-11e4-a52e-4f735466cecf": "69987793-f77d-4259-a17a-8c4b309096ab"
  },
  {
    "element-6066-11e4-a52e-4f735466cecf": "61a0edce-f502-40ab-a73d-210e0456b264"
  },
  {
    "element-6066-11e4-a52e-4f735466cecf": "7fa3aa65-3cac-4dbe-b1bb-dff559d0a74d"
  },
  {
    "element-6066-11e4-a52e-4f735466cecf": "164be580-ba27-4602-920f-3491df24b729"
  },
  {
    "element-6066-11e4-a52e-4f735466cecf": "a7999640-3e37-43bc-9877-36b1bc456df1"
  },
  {
    "element-6066-11e4-a52e-4f735466cecf": "98423740-c123-4777-a4b2-3d63ea3e6dee"
  },
  {
    "element-6066-11e4-a52e-4f735466cecf": "5a359712-f582-471a-839b-3d1bd69e73da"
  },
  {
    "element-6066-11e4-a52e-4f735466cecf": "033e7e8a-3a55-4f9b-8acf-569d511f6093"
  },
  {
    "element-6066-11e4-a52e-4f735466cecf": "c88f4676-8d62-414c-9f10-741ef864be59"
  },
  {
    "element-6066-11e4-a52e-4f735466cecf": "e5e9affd-3170-49fb-887e-8a1f25d223a6"
  },
  {
    "element-6066-11e4-a52e-4f735466cecf": "424319bb-2da1-45b3-b323-a6a66ce420c3"
  },
  {
    "element-6066-11e4-a52e-4f735466cecf": "08f52711-0e88-46f4-9365-9d7be03bdd2e"
  },
  {
    "element-6066-11e4-a52e-4f735466cecf": "7b8639ea-9b86-457b-a122-0f2461db9d87"
  },
  {
    "element-6066-11e4-a52e-4f735466cecf": "37a6b54d-5af1-4e67-8483-20542a21513c"
  },
  {
    "element-6066-11e4-a52e-4f735466cecf": "f0ee25bb-90a8-49d7-b2f3-1216848b9907"
  },
  {
    "element-6066-11e4-a52e-4f735466cecf": "a905cd26-4fc6-4d0d-b214-1d0f04b9504b"
  },
  {
    "element-6066-11e4-a52e-4f735466cecf": "d8b6868e-fe40-46f9-bceb-ffae40818cf4"
  },
  {
    "element-6066-11e4-a52e-4f735466cecf": "1018fcdd-ea7b-408c-a7e3-06debfbf5e5d"
  },
  {
    "element-6066-11e4-a52e-4f735466cecf": "c32e2caf-26b4-4979-9eff-9c6e5eba79ae"
  },
  {
    "element-6066-11e4-a52e-4f735466cecf": "8f5e4757-d06b-42ce-8c2d-61387e911da8"
  },
  {
    "element-6066-11e4-a52e-4f735466cecf": "adead30a-5a3e-47d3-8209-2a26f2c516d5"
  },
  {
    "element-6066-11e4-a52e-4f735466cecf": "5ba37046-1eb8-4ce3-bea4-ccf524759614"
  },
  {
    "element-6066-11e4-a52e-4f735466cecf": "84b49a85-d926-42b7-b517-6624b90fa675"
  }
]