[
  {
    "element-6066-11e4-a52e-4f735466cecf": "a2b2ae3e-cc1a-44a7-9aa7-37008b420247"
  },
  {
    "element-6066-11e4-a52e-4f735466cecf": "4d2c547d-b131-4291-a5ad-ae2a5d545d60"
  },
  {
    "element-6066-11e4-a52e-4f735466cecf": "85874fdc-f489-42bd-abd9-19129ca80bc3"
  },
  {
    "element-6066-11e4-a52e-4f735466cecf": "2a1a913e-e1a3-41b6-bba5-b906cd4a1f28"
  },
  {
    "element-6066-11e4-a52e-4f735466cecf": "5b12c777-5d3d-4bb3-abc7-d5fdd179a3d6"
  },
  {
    "element-6066-11e4-a52e-4f735466cecf": "356f0b37-5c4b-42cf-8d47-1f705cc46da8"
  },
  {
    "element-6066-11e4-a52e-4f735466cecf": "439ca135-ba0e-4bbb-847c-36a4a4e21a8a"
  },
  {
    "element-6066-11e4-a52e-4f735466cecf": "2a0ae4a4-abe8-4cab-92c8-21af5216a8fe"
  },
  {
    "element-6066-11e4-a52e-4f735466cecf": "32bcc5b5-10ed-4c36-9b08-cd72055b83f3"
  },
  {
    "element-6066-11e4-a52e-4f735466cecf": "b8eae16f-5401-4b1f-93ec-7687341ea0ea"
  },
  {
    "element-6066-11e4-a52e-4f735466cecf": "49ea67c2-101c-4f27-8e65-62221644d443"
  },
  {
    "element-6066-11e4-a52e-4f735466cecf": "47955359-7dde-460d-a503-d2ca53126e05"
  },
  {
    "element-6066-11e4-a52e-4f735466cecf": "f3d053ae-0e9a-45b4-b400-11569639cb1e"
  },
  {
    "element-6066-11e4-a52e-4f735466cecf": "c21c059d-a876-4f1f-85f7-4bf67455b86a"
  },
  {
    "element-6066-11e4-a52e-4f735466cecf": "c49e5e1b-c4e6-432b-9081-298910f4cf92"
  },
  {
    "element-6066-11e4-a52e-4f735466cecf": "0cae154e-85a4-44aa-b0f1-97a870cb2781"
  },
  {
    "element-6066-11e4-a52e-4f735466cecf": "51c202b3-2eeb-41be-8357-be39c5fc07a5"
  },
  {
    "element-6066-11e4-a52e-4f735466cecf": "4674cfe9-0c44-455b-a14b-f380a410e5c6"
  },
  {
    "element-6066-11e4-a52e-4f735466cecf": "b2c0facd-2ca6-4e3c-8487-f346ebc71318"
  },
  {
    "element-6066-11e4-a52e-4f735466cecf": "c94df339-9166-47e4-9c52-9d2fe08898ff"
  },
  {
    "element-6066-11e4-a52e-4f735466cecf": "e993f84a-7bc4-4ded-8644-bf3c2b37df0b"
  },
  {
    "element-6066-11e4-a52e-4f735466cecf": "1a178cd8-c983-4e3f-91e3-cda3d3567c2e"
  },
  {
    "element-6066-11e4-a52e-4f735466cecf": "4c79b961-4d7f-423f-9e3a-2cba05a23b6e"
  },
  {
    "element-6066-11e4-a52e-4f735466cecf": "ef76159e-2b9e-41c3-989e-46308155ff73"
  },
  {
    "element-6066-11e4-a52e-4f735466cecf": "ca3524ba-76d7-4bd9-9c31-c2cb7c1cfb8e"
  },
  {
    "element-6066-11e4-a52e-4f735466cecf": "d28808e6-39da-4e83-955e-9953a0f42c7f"
  },
  {
    "element-6066-11e4-a52e-4f735466cecf": "f1cb0b93-aefa-46bf-9196-17ca1fdb527a"
  },
  {
    "element-6066-11e4-a52e-4f735466cecf": "76e409d5-3fbd-45d5-a89e-e3f95bf5a867"
  },
  {
    "element-6066-11e4-a52e-4f735466cecf": "934e7ecf-a63e-4c1e-b110-92f5b108da86"
  },
  {
    "element-6066-11e4-a52e-4f735466cecf": "3f411726-258a-4097-9a8c-0ae1db46dce6"
  },
  {
    "element-6066-11e4-a52e-4f735466cecf": "97e1f286-c759-4153-adc7-8d2f0af05faf"
  },
  {
    "element-6066-11e4-a52e-4f735466cecf": "0f46d9b1-7bb4-4fee-b5ba-fadc7ea86e1d"
  },
  {
    "element-6066-11e4-a52e-4f735466cecf": "2ceec53b-bda7-4ee9-b807-9c13b26f8d95"
  },
  {
    "element-6066-11e4-a52e-4f735466cecf": "dabbfe0f-7c7d-4145-80ee-892faaccca10"
  },
  {
    "element-6066-11e4-a52e-4f735466cecf": "0b4ff74a-dc68-4f44-bcad-39f7042d6ec4"
  },
  {
    "element-6066-11e4-a52e-4f735466cecf": "03ea7a93-8443-49ac-bd9f-4686a334274c"
  },
  {
    "element-6066-11e4-a52e-4f735466cecf": "a6ae2333-909b-45e6-b984-8d6e5139c868"
  },
  {
    "element-6066-11e4-a52e-4f735466cecf": "cb84f1ce-5fb2-46bb-ad21-910f04cdf7ac"
  },
  {
    "element-6066-11e4-a52e-4f735466cecf": "1a475d3a-4904-408b-93a6-544b479175f0"
  },
  {
    "element-6066-11e4-a52e-4f735466cecf": "949d841e-c7f5-4d2d-915c-a13b2189ce39"
  },
  {
    "element-6066-11e4-a52e-4f735466cecf": "6249d10d-8a80-4179-8259-13d07366935f"
  },
  {
    "element-6066-11e4-a52e-4f735466cecf": "76cbb253-3d06-40bf-8040-bf795d0200f5"
  },
  {
    "element-6066-11e4-a52e-4f735466cecf": "6be90b45-9fde-40ed-a7bf-099cab5a87fc"
  },
  {
    "element-6066-11e4-a52e-4f735466cecf": "1374bd6c-a90d-487d-8f0a-320cb4cd71fd"
  },
  {
    "element-6066-11e4-a52e-4f735466cecf": "7be17bfd-160a-499f-a010-b58cc9a2e8ac"
  },
  {
    "element-6066-11e4-a52e-4f735466cecf": "abd83d7e-4349-4765-8a1e-c9f1a13e498a"
  },
  {
    "element-6066-11e4-a52e-4f735466cecf": "96266643-d414-472e-bc8c-3e53884ab712"
  },
  {
    "element-6066-11e4-a52e-4f735466cecf": "43ba9ae5-23cd-4c90-a7f6-7600c7949d0b"
  },
  {
    "element-6066-11e4-a52e-4f735466cecf": "8ef7602c-7e26-4451-abfc-ed14fed99c84"
  },
  {
    "element-6066-11e4-a52e-4f735466cecf": "d735d60b-24d5-4eac-9c96-263d67f66532"
  },
  {
    "element-6066-11e4-a52e-4f735466cecf": "77a22f26-9ea5-4132-8844-637b815c2722"
  },
  {
    "element-6066-11e4-a52e-4f735466cecf": "1b874c31-3cf0-40ee-ab13-3a3f9c90aba3"
  },
  {
    "element-6066-11e4-a52e-4f735466cecf": "fc7f84c2-bc55-4fa4-a91d-c2eadd80c813"
  },
  {
    "element-6066-11e4-a52e-4f735466cecf": "20ed55e3-ed67-4303-9bea-b5369b3b0fd0"
  },
  {
    "element-6066-11e4-a52e-4f735466cecf": "47cb6256-5809-49d2-b74c-86e869418daf"
  },
  {
    "element-6066-11e4-a52e-4f735466cecf": "ceabf5f9-f2bc-48c0-8a48-3128bf70ce19"
  },
  {
    "element-6066-11e4-a52e-4f735466cecf": "d0b5d99c-2f65-4bd5-9c4f-c8ad26e26625"
  },
  {
    "element-6066-11e4-a52e-4f735466cecf": "b6c95cf4-1f75-467d-a242-fe14410f34ae"
  },
  {
    "element-6066-11e4-a52e-4f735466cecf": "f82f7f23-402c-4208-8cc6-03d067f32a7e"
  },
  {
    "element-6066-11e4-a52e-4f735466cecf": "ed41396e-d0ce-41fa-b401-252ca7d5541e"
  },
  {
    "element-6066-11e4-a52e-4f735466cecf": "bfd119d7-d470-4453-adc7-d47b0e75ab51"
  },
  {
    "element-6066-11e4-a52e-4f735466cecf": "415ae595-1b07-4862-bbcc-e73ece2c93df"
  },
  {
    "element-6066-11e4-a52e-4f735466cecf": "de4fbacb-f8e8-429e-97fb-42a1994e393c"
  },
  {
    "element-6066-11e4-a52e-4f735466cecf": "a61fe6d5-85b2-4017-a1ec-c3a687382d52"
  },
  {
    "element-6066-11e4-a52e-4f735466cecf": "dcbbac9c-b960-4f24-8617-a7e00834fa72"
  },
  {
    "element-6066-11e4-a52e-4f735466cecf": "7ab83021-c9ff-49b9-9dfb-58182dedbf9a"
  },
  {
    "element-6066-11e4-a52e-4f735466cecf": "f2b91fef-bb70-4145-a75a-1df7cad0e8fc"
  },
  {
    "element-6066-11e4-a52e-4f735466cecf": "ab70ed34-3398-40dd-a51c-74b496da60ad"
  },
  {
    "element-6066-11e4-a52e-4f735466cecf": "362bd1ba-326d-4f41-90dc-0986ecbe9760"
  },
  {
    "element-6066-11e4-a52e-4f735466cecf": "df51a949-66ae-450e-bba2-cb488f055606"
  },
  {
    "element-6066-11e4-a52e-4f735466cecf": "7b616b87-c110-4459-8914-08a04f90b2fa"
  },
  {
    "element-6066-11e4-a52e-4f735466cecf": "88ba86d2-f3f6-43da-928a-85712d1eeb45"
  },
  {
    "element-6066-11e4-a52e-4f735466cecf": "a49f8d8e-de18-46eb-b660-e14c9d4a9114"
  },
  {
    "element-6066-11e4-a52e-4f735466cecf": "8d85a264-f13a-4024-9f01-b9f23068fcdd"
  },
  {
    "element-6066-11e4-a52e-4f735466cecf": "d99ef08d-e8bb-4de8-a45d-24ef16c4be4f"
  },
  {
    "element-6066-11e4-a52e-4f735466cecf": "14dc8398-3397-4dbd-b248-f3b30e779388"
  },
  {
    "element-6066-11e4-a52e-4f735466cecf": "7763ae81-1880-4394-9826-a726bdc4b414"
  },
  {
    "element-6066-11e4-a52e-4f735466cecf": "3a2051a3-f233-47bc-afa0-9df9c234a089"
  },
  {
    "element-6066-11e4-a52e-4f735466cecf": "ec438224-a8da-40f0-b349-637e4bb371ac"
  },
  {
    "element-6066-11e4-a52e-4f735466cecf": "f274ec86-7356-4271-8237-ab05b14075f3"
  },
  {
    "element-6066-11e4-a52e-4f735466cecf": "51f5d5a4-01f0-40c3-a8f9-0cebcafc2678"
  }
]