[
  {
    "element-6066-11e4-a52e-4f735466cecf": "e831c5a6-fcad-4e87-a575-70d3006ace27"
  },
  {
    "element-6066-11e4-a52e-4f735466cecf": "1b269612-cd80-45de-ad44-f86c3c64f1dc"
  },
  {
    "element-6066-11e4-a52e-4f735466cecf": "b51971e1-4b9b-4ad6-a950-a9027f1de033"
  },
  {
    "element-6066-11e4-a52e-4f735466cecf": "6c83b78b-b40f-4e2c-a006-2a8967d25e27"
  },
  {
    "element-6066-11e4-a52e-4f735466cecf": "1ac511f7-2f65-44d8-929f-18aa426e9592"
  },
  {
    "element-6066-11e4-a52e-4f735466cecf": "e1607536-76c5-4887-96b8-c24ab591f5e5"
  },
  {
    "element-6066-11e4-a52e-4f735466cecf": "ede43252-e8ae-4180-8019-d3cbf4d0758e"
  },
  {
    "element-6066-11e4-a52e-4f735466cecf": "978ea934-6241-46dd-abf8-06c034d5a7bb"
  },
  {
    "element-6066-11e4-a52e-4f735466cecf": "b9df8598-f2cd-4e4f-947e-bc02fa0aee71"
  },
  {
    "element-6066-11e4-a52e-4f735466cecf": "cefb6723-a4cd-4360-a368-975032f52c4d"
  },
  {
    "element-6066-11e4-a52e-4f735466cecf": "2eac6b3a-bc1f-4a36-b990-6dfd46dc18d2"
  },
  {
    "element-6066-11e4-a52e-4f735466cecf": "92294f46-5d82-476f-9b24-b5fada11c6f5"
  },
  {
    "element-6066-11e4-a52e-4f735466cecf": "6b01b1a8-13fe-4033-926c-fa5c4249d177"
  },
  {
    "element-6066-11e4-a52e-4f735466cecf": "4e3a1359-f8b4-49a3-92cb-131f9ed53dbf"
  },
  {
    "element-6066-11e4-a52e-4f735466cecf": "3bb6f0f4-0edf-4c97-99be-c5572d6dfd66"
  },
  {
    "element-6066-11e4-a52e-4f735466cecf": "a5bc4a78-e678-47f8-bf93-eb297fa7b465"
  },
  {
    "element-6066-11e4-a52e-4f735466cecf": "c4e5233d-c8df-4551-84c0-ef67acf084a1"
  },
  {
    "element-6066-11e4-a52e-4f735466cecf": "f5791b52-1ada-44de-9424-4a90857bea5e"
  }
]