[
  {
    "element-6066-11e4-a52e-4f735466cecf": "0aae8ed8-7efb-47a0-ba5c-77d840a562ae"
  },
  {
    "element-6066-11e4-a52e-4f735466cecf": "9b916cce-d3bb-4359-aec7-20a47dd448f5"
  },
  {
    "element-6066-11e4-a52e-4f735466cecf": "5bfbe3f5-5d43-48b8-aba4-eb5c46707b7a"
  },
  {
    "element-6066-11e4-a52e-4f735466cecf": "c70b3ac4-5576-439f-9b66-6be4a059e39f"
  },
  {
    "element-6066-11e4-a52e-4f735466cecf": "43122ed6-df14-4c98-a3f9-c241c6f0147a"
  },
  {
    "element-6066-11e4-a52e-4f735466cecf": "4c4ab246-333b-4c8d-8d0c-99dfb0c88b24"
  },
  {
    "element-6066-11e4-a52e-4f735466cecf": "a297d86b-f790-4abc-802a-97c5b19188ab"
  },
  {
    "element-6066-11e4-a52e-4f735466cecf": "4facddf8-bca4-4d84-bf41-78299241b1d2"
  },
  {
    "element-6066-11e4-a52e-4f735466cecf": "ad7b88a2-d80e-41d2-9c3d-d966150753cd"
  },
  {
    "element-6066-11e4-a52e-4f735466cecf": "be34ba2e-9046-4498-ade9-fecfaf3af19c"
  },
  {
    "element-6066-11e4-a52e-4f735466cecf": "43455484-a168-4d72-b45c-fbc13c373d3c"
  },
  {
    "element-6066-11e4-a52e-4f735466cecf": "df3f31fd-46aa-4cf4-ab37-1a2542b96d88"
  },
  {
    "element-6066-11e4-a52e-4f735466cecf": "119e7eb6-770a-4046-98fb-90e3942ef111"
  },
  {
    "element-6066-11e4-a52e-4f735466cecf": "b36e374e-4a77-4055-90b2-52bf326de334"
  },
  {
    "element-6066-11e4-a52e-4f735466cecf": "36a14138-bd1a-4c0d-97cf-3fa03a251ded"
  },
  {
    "element-6066-11e4-a52e-4f735466cecf": "1db9d97d-f9d5-47b6-b36c-7262b993349e"
  },
  {
    "element-6066-11e4-a52e-4f735466cecf": "1605d5f9-18bb-49a1-80bb-1ef1cdf80f7d"
  },
  {
    "element-6066-11e4-a52e-4f735466cecf": "4990a312-b034-44a1-8973-862bd3989430"
  },
  {
    "element-6066-11e4-a52e-4f735466cecf": "fc69ff76-87c6-4663-a60b-2a56d68fe31f"
  },
  {
    "element-6066-11e4-a52e-4f735466cecf": "aa23902b-2279-4409-a4cd-b241329dbee8"
  },
  {
    "element-6066-11e4-a52e-4f735466cecf": "0f8f6142-8d49-4792-8fa5-24efc9a962d4"
  },
  {
    "element-6066-11e4-a52e-4f735466cecf": "b9d36383-1741-4f82-a29b-817769e63703"
  },
  {
    "element-6066-11e4-a52e-4f735466cecf": "390578dd-7923-4e80-88fd-9837346b0394"
  },
  {
    "element-6066-11e4-a52e-4f735466cecf": "51f5866b-f805-4643-89a1-0cf9ddfbfa24"
  }
]