[
  {
    "element-6066-11e4-a52e-4f735466cecf": "03404312-2211-42b0-95d6-f43ddef68bed"
  },
  {
    "element-6066-11e4-a52e-4f735466cecf": "4e6cb80b-5d67-44b6-8ba2-921a50d331e1"
  },
  {
    "element-6066-11e4-a52e-4f735466cecf": "257cdac2-38c7-4ad0-899f-4552646a20d0"
  },
  {
    "element-6066-11e4-a52e-4f735466cecf": "bd9698ae-f181-4856-b7cc-158d752c1142"
  },
  {
    "element-6066-11e4-a52e-4f735466cecf": "65153500-f1ec-4095-9d5b-82dd5c3dcc6f"
  },
  {
    "element-6066-11e4-a52e-4f735466cecf": "64364c2e-e645-4d72-879e-7a90505747ba"
  },
  {
    "element-6066-11e4-a52e-4f735466cecf": "e1171298-40e2-4188-bc57-29cfc286ae8e"
  },
  {
    "element-6066-11e4-a52e-4f735466cecf": "52dcc9ce-7c8b-474d-a221-ba0c24dca87e"
  },
  {
    "element-6066-11e4-a52e-4f735466cecf": "622079cc-95d6-4b82-853c-7eb99239c435"
  },
  {
    "element-6066-11e4-a52e-4f735466cecf": "66909e11-2986-4c07-bca4-6f58fda0247b"
  },
  {
    "element-6066-11e4-a52e-4f735466cecf": "07e1d974-8cfe-4870-ab41-f81fc8dbae32"
  },
  {
    "element-6066-11e4-a52e-4f735466cecf": "ef965208-537b-4016-b9bb-3a26c621e633"
  },
  {
    "element-6066-11e4-a52e-4f735466cecf": "a2859974-ad95-42ba-9219-fdc8a46772ad"
  },
  {
    "element-6066-11e4-a52e-4f735466cecf": "4a313a74-8faf-4d4c-8c22-4a50dfa80e6b"
  },
  {
    "element-6066-11e4-a52e-4f735466cecf": "7cdca076-e54c-4e2e-a748-f16b646cd531"
  },
  {
    "element-6066-11e4-a52e-4f735466cecf": "8fab23eb-a355-4a20-bb4a-dc4c7d6749c1"
  },
  {
    "element-6066-11e4-a52e-4f735466cecf": "789ad470-6c91-4904-ab23-9950f8ff8a9b"
  },
  {
    "element-6066-11e4-a52e-4f735466cecf": "ad0eefca-5833-4d53-867e-c9e2748260b4"
  },
  {
    "element-6066-11e4-a52e-4f735466cecf": "33b81e63-d142-4487-9ef7-e14052df201d"
  },
  {
    "element-6066-11e4-a52e-4f735466cecf": "f838eeb6-626e-49f0-9389-ba956dc04b2b"
  },
  {
    "element-6066-11e4-a52e-4f735466cecf": "2e6803b1-e82d-47ee-a95b-f95f5be646ba"
  },
  {
    "element-6066-11e4-a52e-4f735466cecf": "f9c21a0f-6336-42e4-b03a-5a432868afa9"
  },
  {
    "element-6066-11e4-a52e-4f735466cecf": "8814d5d1-0903-4821-b6e9-f08c40f0ad48"
  },
  {
    "element-6066-11e4-a52e-4f735466cecf": "06c1e3d9-7906-4614-82d2-30922949ef0c"
  }
]