[
  {
    "element-6066-11e4-a52e-4f735466cecf": "faf5d023-c46d-461a-be96-fb8437bb39b9"
  },
  {
    "element-6066-11e4-a52e-4f735466cecf": "3cf6c21e-6b03-42e7-9f01-1ed1f89c4922"
  },
  {
    "element-6066-11e4-a52e-4f735466cecf": "5a17e912-73dc-45d0-b9b2-9d54e3af22de"
  },
  {
    "element-6066-11e4-a52e-4f735466cecf": "e838348a-6a57-4896-bb80-894fd865df66"
  },
  {
    "element-6066-11e4-a52e-4f735466cecf": "32013268-cb21-4a4d-ab0e-3283c6aa5908"
  },
  {
    "element-6066-11e4-a52e-4f735466cecf": "0fb9a556-6586-4fcc-a0fe-d69c73062189"
  },
  {
    "element-6066-11e4-a52e-4f735466cecf": "20de0d93-150d-4e08-9773-be3072ea5799"
  },
  {
    "element-6066-11e4-a52e-4f735466cecf": "fed29b0c-56c0-4468-93ea-611f282ee666"
  },
  {
    "element-6066-11e4-a52e-4f735466cecf": "4f6f1b59-30b4-49d8-9cc3-fef6e0b9ab44"
  },
  {
    "element-6066-11e4-a52e-4f735466cecf": "ad5970f5-5d6f-410b-a6fb-bed4ff78a0df"
  },
  {
    "element-6066-11e4-a52e-4f735466cecf": "c49ef551-9493-4eca-a9d6-114a8cc8d131"
  },
  {
    "element-6066-11e4-a52e-4f735466cecf": "68bcd755-5682-4654-8a25-7fe0195420ff"
  },
  {
    "element-6066-11e4-a52e-4f735466cecf": "c9dab4ff-3d7a-460f-b344-1f2b9cd9b8a4"
  },
  {
    "element-6066-11e4-a52e-4f735466cecf": "d6ff6b6d-5000-4b23-91e8-8fa3e4aa4f90"
  },
  {
    "element-6066-11e4-a52e-4f735466cecf": "c80085d9-ce3b-43f3-a34c-ab5d0c6a9f53"
  },
  {
    "element-6066-11e4-a52e-4f735466cecf": "b311c8ce-3fd8-4b80-acd8-3fadd93f93d2"
  },
  {
    "element-6066-11e4-a52e-4f735466cecf": "2f1f4ce0-dd43-4657-88f4-fa166288ba4e"
  },
  {
    "element-6066-11e4-a52e-4f735466cecf": "7bb16e53-e3c5-40be-a175-1883c2915fe5"
  },
  {
    "element-6066-11e4-a52e-4f735466cecf": "8463337f-904b-4730-ab6a-a6b18cc3fabf"
  },
  {
    "element-6066-11e4-a52e-4f735466cecf": "87efc66c-a37e-44a9-9a35-826b0828bc00"
  },
  {
    "element-6066-11e4-a52e-4f735466cecf": "a3184bea-0809-4be1-9ed5-f1228348ffdf"
  },
  {
    "element-6066-11e4-a52e-4f735466cecf": "51c1a85c-5a7f-43fd-b1e4-c62b8e8b499b"
  },
  {
    "element-6066-11e4-a52e-4f735466cecf": "cbbe18a9-f176-48c0-b375-821a87f472ee"
  },
  {
    "element-6066-11e4-a52e-4f735466cecf": "d9b7b0a7-1178-49d1-9470-cfa28dcebaf8"
  }
]